PARCIALDOS/CuartoPunto/DECOCUATROADIECISEIS/simulation/qsim/DECOCUATROADIECISEIS.msim.vcd
$comment
	File created using the following command:
		vcd file DECOCUATROADIECISEIS.msim.vcd -direction
$end
$date
	Fri Feb 18 15:28:23 2022
$end
$version
	ModelSim Version 10.1d
$end
$timescale
	1ps
$end
$scope module DECOCUATROADIECISEIS_vlg_vec_tst $end
$var reg 1 ! A $end
$var reg 1 " B $end
$var reg 1 # C $end
$var reg 1 $ D $end
$var wire 1 % D0 $end
$var wire 1 & D1 $end
$var wire 1 ' D2 $end
$var wire 1 ( D3 $end
$var wire 1 ) D4 $end
$var wire 1 * D5 $end
$var wire 1 + D6 $end
$var wire 1 , D7 $end
$var wire 1 - D8 $end
$var wire 1 . D9 $end
$var wire 1 / D10 $end
$var wire 1 0 D11 $end
$var wire 1 1 D12 $end
$var wire 1 2 D13 $end
$var wire 1 3 D14 $end
$var wire 1 4 D15 $end
$var wire 1 5 sampler $end
$scope module i1 $end
$var wire 1 6 gnd $end
$var wire 1 7 vcc $end
$var wire 1 8 unknown $end
$var tri1 1 9 devclrn $end
$var tri1 1 : devpor $end
$var tri1 1 ; devoe $end
$var wire 1 < D0~output_o $end
$var wire 1 = D1~output_o $end
$var wire 1 > D2~output_o $end
$var wire 1 ? D3~output_o $end
$var wire 1 @ D4~output_o $end
$var wire 1 A D5~output_o $end
$var wire 1 B D6~output_o $end
$var wire 1 C D7~output_o $end
$var wire 1 D D8~output_o $end
$var wire 1 E D9~output_o $end
$var wire 1 F D10~output_o $end
$var wire 1 G D11~output_o $end
$var wire 1 H D12~output_o $end
$var wire 1 I D13~output_o $end
$var wire 1 J D14~output_o $end
$var wire 1 K D15~output_o $end
$var wire 1 L D~input_o $end
$var wire 1 M C~input_o $end
$var wire 1 N B~input_o $end
$var wire 1 O A~input_o $end
$var wire 1 P inst~0_combout $end
$var wire 1 Q inst~1_combout $end
$var wire 1 R inst~2_combout $end
$var wire 1 S inst~3_combout $end
$var wire 1 T inst~4_combout $end
$var wire 1 U inst~5_combout $end
$var wire 1 V inst~6_combout $end
$var wire 1 W inst~7_combout $end
$var wire 1 X inst~8_combout $end
$var wire 1 Y inst~9_combout $end
$var wire 1 Z inst~10_combout $end
$var wire 1 [ inst~11_combout $end
$var wire 1 \ inst~12_combout $end
$var wire 1 ] inst~13_combout $end
$var wire 1 ^ inst~14_combout $end
$var wire 1 _ inst~15_combout $end
$upscope $end
$upscope $end
$enddefinitions $end
#0
$dumpvars
0!
0"
0#
0$
1%
0&
0'
0(
0)
0*
0+
0,
0-
0.
0/
00
01
02
03
04
x5
06
17
x8
19
1:
1;
1<
0=
0>
0?
0@
0A
0B
0C
0D
0E
0F
0G
0H
0I
0J
0K
0L
0M
0N
0O
1P
0Q
0R
0S
0T
0U
0V
0W
0X
0Y
0Z
0[
0\
0]
0^
0_
$end
#50000
1$
1L
05
1Q
0P
1=
0<
1&
0%
#100000
1#
0$
1M
0L
15
1R
0Q
1>
0=
1'
0&
#150000
1$
1L
05
1S
0R
1?
0>
1(
0'
#200000
1"
0#
0$
1N
0M
0L
15
1T
0S
1@
0?
1)
0(
#250000
1$
1L
05
1U
0T
1A
0@
1*
0)
#300000
1#
0$
1M
0L
15
1V
0U
1B
0A
1+
0*
#350000
1$
1L
05
1W
0V
1C
0B
1,
0+
#400000
1!
0"
0#
0$
1O
0N
0M
0L
15
1X
0W
1D
0C
1-
0,
#450000
1$
1L
05
1Y
0X
1E
0D
1.
0-
#500000
1#
0$
1M
0L
15
1Z
0Y
1F
0E
1/
0.
#550000
1$
1L
05
1[
0Z
1G
0F
10
0/
#600000
1"
0#
0$
1N
0M
0L
15
1\
0[
1H
0G
11
00
#650000
1$
1L
05
1]
0\
1I
0H
12
01
#700000
1#
0$
1M
0L
15
1^
0]
1J
0I
13
02
#750000
1$
1L
05
1_
0^
1K
0J
14
03
#800000
0!
0"
0#
0$
0O
0N
0M
0L
15
0_
1P
0K
1<
04
1%
#850000
1$
1L
05
1Q
0P
1=
0<
1&
0%
#900000
1#
0$
1M
0L
15
1R
0Q
1>
0=
1'
0&
#950000
1$
1L
05
1S
0R
1?
0>
1(
0'
