PARCIALDOS/CuartoPunto/CODEDIECISEISACUATRO/simulation/qsim/CODEDIECISEISACUATRO.msim.vcd
$comment
	File created using the following command:
		vcd file CODEDIECISEISACUATRO.msim.vcd -direction
$end
$date
	Fri Feb 18 15:13:16 2022
$end
$version
	ModelSim Version 10.1d
$end
$timescale
	1ps
$end
$scope module CODEDIECISEISACUATRO_vlg_vec_tst $end
$var reg 1 ! D0 $end
$var reg 1 " D1 $end
$var reg 1 # D2 $end
$var reg 1 $ D3 $end
$var reg 1 % D4 $end
$var reg 1 & D5 $end
$var reg 1 ' D6 $end
$var reg 1 ( D7 $end
$var reg 1 ) D8 $end
$var reg 1 * D9 $end
$var reg 1 + D10 $end
$var reg 1 , D11 $end
$var reg 1 - D12 $end
$var reg 1 . D13 $end
$var reg 1 / D14 $end
$var reg 1 0 D15 $end
$var wire 1 1 A $end
$var wire 1 2 B $end
$var wire 1 3 C $end
$var wire 1 4 D $end
$var wire 1 5 sampler $end
$scope module i1 $end
$var wire 1 6 gnd $end
$var wire 1 7 vcc $end
$var wire 1 8 unknown $end
$var tri1 1 9 devclrn $end
$var tri1 1 : devpor $end
$var tri1 1 ; devoe $end
$var wire 1 < D0~input_o $end
$var wire 1 = D8~input_o $end
$var wire 1 > D14~input_o $end
$var wire 1 ? A~output_o $end
$var wire 1 @ B~output_o $end
$var wire 1 A C~output_o $end
$var wire 1 B D~output_o $end
$var wire 1 C D12~input_o $end
$var wire 1 D D13~input_o $end
$var wire 1 E D9~input_o $end
$var wire 1 F inst3~0_combout $end
$var wire 1 G D10~input_o $end
$var wire 1 H D15~input_o $end
$var wire 1 I D11~input_o $end
$var wire 1 J inst3~1_combout $end
$var wire 1 K inst3~combout $end
$var wire 1 L D6~input_o $end
$var wire 1 M D4~input_o $end
$var wire 1 N inst2~0_combout $end
$var wire 1 O D5~input_o $end
$var wire 1 P D7~input_o $end
$var wire 1 Q inst2~1_combout $end
$var wire 1 R inst2~combout $end
$var wire 1 S D2~input_o $end
$var wire 1 T inst1~0_combout $end
$var wire 1 U inst1~combout $end
$var wire 1 V D1~input_o $end
$var wire 1 W D3~input_o $end
$var wire 1 X inst~0_combout $end
$var wire 1 Y inst~combout $end
$upscope $end
$upscope $end
$enddefinitions $end
#0
$dumpvars
1!
0"
0#
0$
0%
0&
0'
0(
0)
0*
0+
0,
0-
0.
0/
00
01
02
03
04
x5
06
17
x8
19
1:
1;
1<
0=
0>
0?
0@
0A
0B
0C
0D
0E
0F
0G
0H
0I
1J
0K
0L
0M
0N
0O
0P
1Q
0R
0S
0T
0U
0V
0W
0X
0Y
$end
#50000
0!
1"
0<
1V
05
1X
1Y
1B
14
#100000
1#
0"
1S
0V
15
1T
0X
1U
0Y
1A
0B
13
04
#150000
1$
0#
1W
0S
05
1X
1Y
1B
14
#200000
1%
0$
1M
0W
15
1N
0X
0T
1R
0Y
0U
1@
0B
0A
12
04
03
#250000
1&
0%
1O
0M
05
0Q
0N
1Y
1B
14
#310000
1'
0&
1L
0O
15
1T
1N
1Q
1U
0Y
1A
0B
13
04
#360000
1(
0'
1P
0L
05
0Q
0N
1Y
1B
14
#410000
1)
0(
1=
0P
15
1F
0T
1Q
1K
0U
0Y
0R
1?
0A
0B
0@
11
03
04
02
#460000
1*
0)
1E
0=
05
1X
1Y
1B
14
#510000
1+
0*
1G
0E
15
0J
0X
0F
1U
0Y
1A
0B
13
04
#560000
1,
0+
1I
0G
05
1X
1Y
1B
14
#610000
1-
0,
1C
0I
15
1N
1F
0X
1J
1R
0Y
0U
1@
0B
0A
12
04
03
#660000
1.
0-
1D
0C
05
0Q
0N
1Y
1B
14
#710000
1/
0.
1>
0D
15
1N
0J
1Q
0F
1U
0Y
1A
0B
13
04
#760000
10
0/
1H
0>
05
0Q
0N
1Y
1B
14
#810000
00
0H
15
1Q
1J
0Y
0R
0U
0K
0B
0@
0A
0?
04
02
03
01
