TercerCorte/ModOchoTruncadoCinco/simulation/qsim/ModOchoTruncadoCinco.msim.vcd
$comment
	File created using the following command:
		vcd file ModOchoTruncadoCinco.msim.vcd -direction
$end
$date
	Mon Mar 07 14:44:44 2022
$end
$version
	ModelSim Version 10.1d
$end
$timescale
	1ps
$end
$scope module ModOchoTruncadoCinco_vlg_vec_tst $end
$var reg 1 ! CLK $end
$var wire 1 " Q0 $end
$var wire 1 # Q1 $end
$var wire 1 $ Q2 $end
$var wire 1 % sampler $end
$scope module i1 $end
$var wire 1 & gnd $end
$var wire 1 ' vcc $end
$var wire 1 ( unknown $end
$var tri1 1 ) devclrn $end
$var tri1 1 * devpor $end
$var tri1 1 + devoe $end
$var wire 1 , Q0~output_o $end
$var wire 1 - Q1~output_o $end
$var wire 1 . Q2~output_o $end
$var wire 1 / CLK~input_o $end
$var wire 1 0 inst52~0_combout $end
$var wire 1 1 inst52~feeder_combout $end
$var wire 1 2 inst2~0_combout $end
$var wire 1 3 inst2~q $end
$var wire 1 4 inst~combout $end
$var wire 1 5 inst52~q $end
$var wire 1 6 inst1~0_combout $end
$var wire 1 7 inst1~feeder_combout $end
$var wire 1 8 inst1~q $end
$upscope $end
$upscope $end
$enddefinitions $end
#0
$dumpvars
0!
0"
0#
0$
x%
0&
1'
x(
1)
1*
1+
0,
0-
0.
0/
10
11
12
03
04
05
16
17
08
$end
#5000
1!
1/
0%
15
00
1,
1"
01
#10000
0!
0/
1%
#15000
1!
1/
0%
05
10
0,
0"
11
18
06
1-
1#
07
#20000
0!
0/
1%
#25000
1!
1/
0%
15
00
1,
1"
01
#30000
0!
0/
1%
#35000
1!
1/
0%
05
10
0,
0"
11
08
16
0-
0#
17
13
02
1.
1$
#40000
0!
0/
1%
#45000
1!
1/
0%
15
14
00
1,
1"
01
03
05
04
12
10
0.
0,
0$
0"
11
#50000
0!
0/
1%
#55000
1!
1/
0%
15
00
1,
1"
01
#60000
0!
0/
1%
#65000
1!
1/
0%
05
10
0,
0"
11
18
06
1-
1#
07
#70000
0!
0/
1%
#75000
1!
1/
0%
15
00
1,
1"
01
#80000
0!
0/
1%
#85000
1!
1/
0%
05
10
0,
0"
11
08
16
0-
0#
17
13
02
1.
1$
#90000
0!
0/
1%
#95000
1!
1/
0%
15
14
00
1,
1"
01
03
05
04
12
10
0.
0,
0$
0"
11
#100000
0!
0/
1%
#105000
1!
1/
0%
15
00
1,
1"
01
#110000
0!
0/
1%
#115000
1!
1/
0%
05
10
0,
0"
11
18
06
1-
1#
07
#120000
0!
0/
1%
#125000
1!
1/
0%
15
00
1,
1"
01
#130000
0!
0/
1%
#135000
1!
1/
0%
05
10
0,
0"
11
08
16
0-
0#
17
13
02
1.
1$
#140000
0!
0/
1%
#145000
1!
1/
0%
15
14
00
1,
1"
01
03
05
04
12
10
0.
0,
0$
0"
11
#150000
0!
0/
1%
#155000
1!
1/
0%
15
00
1,
1"
01
#160000
0!
0/
1%
#165000
1!
1/
0%
05
10
0,
0"
11
18
06
1-
1#
07
#170000
0!
0/
1%
#175000
1!
1/
0%
15
00
1,
1"
01
#180000
0!
0/
1%
#185000
1!
1/
0%
05
10
0,
0"
11
08
16
0-
0#
17
13
02
1.
1$
#190000
0!
0/
1%
#195000
1!
1/
0%
15
14
00
1,
1"
01
03
05
04
12
10
0.
0,
0$
0"
11
#200000
0!
0/
1%
#205000
1!
1/
0%
15
00
1,
1"
01
#210000
0!
0/
1%
#215000
1!
1/
0%
05
10
0,
0"
11
18
06
1-
1#
07
#220000
0!
0/
1%
#225000
1!
1/
0%
15
00
1,
1"
01
#230000
0!
0/
1%
#235000
1!
1/
0%
05
10
0,
0"
11
08
16
0-
0#
17
13
02
1.
1$
#240000
0!
0/
1%
#245000
1!
1/
0%
15
14
00
1,
1"
01
03
05
04
12
10
0.
0,
0$
0"
11
#250000
0!
0/
1%
#255000
1!
1/
0%
15
00
1,
1"
01
#260000
0!
0/
1%
#265000
1!
1/
0%
05
10
0,
0"
11
18
06
1-
1#
07
#270000
0!
0/
1%
#275000
1!
1/
0%
15
00
1,
1"
01
#280000
0!
0/
1%
#285000
1!
1/
0%
05
10
0,
0"
11
08
16
0-
0#
17
13
02
1.
1$
#290000
0!
0/
1%
#295000
1!
1/
0%
15
14
00
1,
1"
01
03
05
04
12
10
0.
0,
0$
0"
11
#300000
0!
0/
1%
#305000
1!
1/
0%
15
00
1,
1"
01
#310000
0!
0/
1%
#315000
1!
1/
0%
05
10
0,
0"
11
18
06
1-
1#
07
#320000
0!
0/
1%
#325000
1!
1/
0%
15
00
1,
1"
01
#330000
0!
0/
1%
#335000
1!
1/
0%
05
10
0,
0"
11
08
16
0-
0#
17
13
02
1.
1$
#340000
0!
0/
1%
#345000
1!
1/
0%
15
14
00
1,
1"
01
03
05
04
12
10
0.
0,
0$
0"
11
#350000
0!
0/
1%
#355000
1!
1/
0%
15
00
1,
1"
01
#360000
0!
0/
1%
#365000
1!
1/
0%
05
10
0,
0"
11
18
06
1-
1#
07
#370000
0!
0/
1%
#375000
1!
1/
0%
15
00
1,
1"
01
#380000
0!
0/
1%
#385000
1!
1/
0%
05
10
0,
0"
11
08
16
0-
0#
17
13
02
1.
1$
#390000
0!
0/
1%
#395000
1!
1/
0%
15
14
00
1,
1"
01
03
05
04
12
10
0.
0,
0$
0"
11
#400000
0!
0/
1%
#405000
1!
1/
0%
15
00
1,
1"
01
#410000
0!
0/
1%
#415000
1!
1/
0%
05
10
0,
0"
11
18
06
1-
1#
07
#420000
0!
0/
1%
#425000
1!
1/
0%
15
00
1,
1"
01
#430000
0!
0/
1%
#435000
1!
1/
0%
05
10
0,
0"
11
08
16
0-
0#
17
13
02
1.
1$
#440000
0!
0/
1%
#445000
1!
1/
0%
15
14
00
1,
1"
01
03
05
04
12
10
0.
0,
0$
0"
11
#450000
0!
0/
1%
#455000
1!
1/
0%
15
00
1,
1"
01
#460000
0!
0/
1%
#465000
1!
1/
0%
05
10
0,
0"
11
18
06
1-
1#
07
#470000
0!
0/
1%
#475000
1!
1/
0%
15
00
1,
1"
01
#480000
0!
0/
1%
#485000
1!
1/
0%
05
10
0,
0"
11
08
16
0-
0#
17
13
02
1.
1$
#490000
0!
0/
1%
#495000
1!
1/
0%
15
14
00
1,
1"
01
03
05
04
12
10
0.
0,
0$
0"
11
#500000
0!
0/
1%
#505000
1!
1/
0%
15
00
1,
1"
01
#510000
0!
0/
1%
#515000
1!
1/
0%
05
10
0,
0"
11
18
06
1-
1#
07
#520000
0!
0/
1%
#525000
1!
1/
0%
15
00
1,
1"
01
#530000
0!
0/
1%
#535000
1!
1/
0%
05
10
0,
0"
11
08
16
0-
0#
17
13
02
1.
1$
#540000
0!
0/
1%
#545000
1!
1/
0%
15
14
00
1,
1"
01
03
05
04
12
10
0.
0,
0$
0"
11
#550000
0!
0/
1%
#555000
1!
1/
0%
15
00
1,
1"
01
#560000
0!
0/
1%
#565000
1!
1/
0%
05
10
0,
0"
11
18
06
1-
1#
07
#570000
0!
0/
1%
#575000
1!
1/
0%
15
00
1,
1"
01
#580000
0!
0/
1%
#585000
1!
1/
0%
05
10
0,
0"
11
08
16
0-
0#
17
13
02
1.
1$
#590000
0!
0/
1%
#595000
1!
1/
0%
15
14
00
1,
1"
01
03
05
04
12
10
0.
0,
0$
0"
11
#600000
0!
0/
1%
#605000
1!
1/
0%
15
00
1,
1"
01
#610000
0!
0/
1%
#615000
1!
1/
0%
05
10
0,
0"
11
18
06
1-
1#
07
#620000
0!
0/
1%
#625000
1!
1/
0%
15
00
1,
1"
01
#630000
0!
0/
1%
#635000
1!
1/
0%
05
10
0,
0"
11
08
16
0-
0#
17
13
02
1.
1$
#640000
0!
0/
1%
#645000
1!
1/
0%
15
14
00
1,
1"
01
03
05
04
12
10
0.
0,
0$
0"
11
#650000
0!
0/
1%
#655000
1!
1/
0%
15
00
1,
1"
01
#660000
0!
0/
1%
#665000
1!
1/
0%
05
10
0,
0"
11
18
06
1-
1#
07
#670000
0!
0/
1%
#675000
1!
1/
0%
15
00
1,
1"
01
#680000
0!
0/
1%
#685000
1!
1/
0%
05
10
0,
0"
11
08
16
0-
0#
17
13
02
1.
1$
#690000
0!
0/
1%
#695000
1!
1/
0%
15
14
00
1,
1"
01
03
05
04
12
10
0.
0,
0$
0"
11
#700000
0!
0/
1%
#705000
1!
1/
0%
15
00
1,
1"
01
#710000
0!
0/
1%
#715000
1!
1/
0%
05
10
0,
0"
11
18
06
1-
1#
07
#720000
0!
0/
1%
#725000
1!
1/
0%
15
00
1,
1"
01
#730000
0!
0/
1%
#735000
1!
1/
0%
05
10
0,
0"
11
08
16
0-
0#
17
13
02
1.
1$
#740000
0!
0/
1%
#745000
1!
1/
0%
15
14
00
1,
1"
01
03
05
04
12
10
0.
0,
0$
0"
11
#750000
0!
0/
1%
#755000
1!
1/
0%
15
00
1,
1"
01
#760000
0!
0/
1%
#765000
1!
1/
0%
05
10
0,
0"
11
18
06
1-
1#
07
#770000
0!
0/
1%
#775000
1!
1/
0%
15
00
1,
1"
01
#780000
0!
0/
1%
#785000
1!
1/
0%
05
10
0,
0"
11
08
16
0-
0#
17
13
02
1.
1$
#790000
0!
0/
1%
#795000
1!
1/
0%
15
14
00
1,
1"
01
03
05
04
12
10
0.
0,
0$
0"
11
#800000
0!
0/
1%
#805000
1!
1/
0%
15
00
1,
1"
01
#810000
0!
0/
1%
#815000
1!
1/
0%
05
10
0,
0"
11
18
06
1-
1#
07
#820000
0!
0/
1%
#825000
1!
1/
0%
15
00
1,
1"
01
#830000
0!
0/
1%
#835000
1!
1/
0%
05
10
0,
0"
11
08
16
0-
0#
17
13
02
1.
1$
#840000
0!
0/
1%
#845000
1!
1/
0%
15
14
00
1,
1"
01
03
05
04
12
10
0.
0,
0$
0"
11
#850000
0!
0/
1%
#855000
1!
1/
0%
15
00
1,
1"
01
#860000
0!
0/
1%
#865000
1!
1/
0%
05
10
0,
0"
11
18
06
1-
1#
07
#870000
0!
0/
1%
#875000
1!
1/
0%
15
00
1,
1"
01
#880000
0!
0/
1%
#885000
1!
1/
0%
05
10
0,
0"
11
08
16
0-
0#
17
13
02
1.
1$
#890000
0!
0/
1%
#895000
1!
1/
0%
15
14
00
1,
1"
01
03
05
04
12
10
0.
0,
0$
0"
11
#900000
0!
0/
1%
#905000
1!
1/
0%
15
00
1,
1"
01
#910000
0!
0/
1%
#915000
1!
1/
0%
05
10
0,
0"
11
18
06
1-
1#
07
#920000
0!
0/
1%
#925000
1!
1/
0%
15
00
1,
1"
01
#930000
0!
0/
1%
#935000
1!
1/
0%
05
10
0,
0"
11
08
16
0-
0#
17
13
02
1.
1$
#940000
0!
0/
1%
#945000
1!
1/
0%
15
14
00
1,
1"
01
03
05
04
12
10
0.
0,
0$
0"
11
#950000
0!
0/
1%
#955000
1!
1/
0%
15
00
1,
1"
01
#960000
0!
0/
1%
#965000
1!
1/
0%
05
10
0,
0"
11
18
06
1-
1#
07
#970000
0!
0/
1%
#975000
1!
1/
0%
15
00
1,
1"
01
#980000
0!
0/
1%
#985000
1!
1/
0%
05
10
0,
0"
11
08
16
0-
0#
17
13
02
1.
1$
#990000
0!
0/
1%
#995000
1!
1/
0%
15
14
00
1,
1"
01
03
05
04
12
10
0.
0,
0$
0"
11
