TercerCorte/ModDieciseis/simulation/qsim/ModDieciseis.msim.vcd
$comment
	File created using the following command:
		vcd file ModDieciseis.msim.vcd -direction
$end
$date
	Mon Mar 07 14:57:01 2022
$end
$version
	ModelSim Version 10.1d
$end
$timescale
	1ps
$end
$scope module ModDieciseis_vlg_vec_tst $end
$var reg 1 ! CLK $end
$var reg 1 " CLR $end
$var wire 1 # Q0 $end
$var wire 1 $ Q1 $end
$var wire 1 % Q2 $end
$var wire 1 & Q3 $end
$var wire 1 ' sampler $end
$scope module i1 $end
$var wire 1 ( gnd $end
$var wire 1 ) vcc $end
$var wire 1 * unknown $end
$var tri1 1 + devclrn $end
$var tri1 1 , devpor $end
$var tri1 1 - devoe $end
$var wire 1 . Q0~output_o $end
$var wire 1 / Q1~output_o $end
$var wire 1 0 Q2~output_o $end
$var wire 1 1 Q3~output_o $end
$var wire 1 2 CLK~input_o $end
$var wire 1 3 inst52~0_combout $end
$var wire 1 4 inst52~feeder_combout $end
$var wire 1 5 CLR~input_o $end
$var wire 1 6 CLR~inputclkctrl_outclk $end
$var wire 1 7 inst52~q $end
$var wire 1 8 inst1~0_combout $end
$var wire 1 9 inst1~q $end
$var wire 1 : inst2~0_combout $end
$var wire 1 ; inst2~feeder_combout $end
$var wire 1 < inst2~q $end
$var wire 1 = inst3~0_combout $end
$var wire 1 > inst3~q $end
$upscope $end
$upscope $end
$enddefinitions $end
#0
$dumpvars
0!
1"
0#
0$
0%
0&
x'
0(
1)
x*
1+
1,
1-
0.
0/
00
01
02
13
14
15
16
07
18
09
1:
1;
0<
1=
0>
$end
#5000
1!
12
0'
17
03
1.
1#
04
#10000
0!
02
1'
#15000
1!
12
0'
07
13
0.
0#
14
19
08
1/
1$
#20000
0!
02
1'
#25000
1!
12
0'
17
03
1.
1#
04
#30000
0!
02
1'
#35000
1!
12
0'
07
13
0.
0#
14
09
18
0/
0$
1<
0:
10
1%
0;
#40000
0!
02
1'
#45000
1!
12
0'
17
03
1.
1#
04
#50000
0!
02
1'
#55000
1!
12
0'
07
13
0.
0#
14
19
08
1/
1$
#60000
0!
02
1'
#65000
1!
12
0'
17
03
1.
1#
04
#70000
0!
02
1'
#75000
1!
12
0'
07
13
0.
0#
14
09
18
0/
0$
0<
1:
00
0%
1;
1>
0=
11
1&
#80000
0!
02
1'
#85000
1!
12
0'
17
03
1.
1#
04
#90000
0!
02
1'
#95000
1!
12
0'
07
13
0.
0#
14
19
08
1/
1$
#100000
0!
02
1'
#105000
1!
12
0'
17
03
1.
1#
04
#110000
0!
02
1'
#115000
1!
12
0'
07
13
0.
0#
14
09
18
0/
0$
1<
0:
10
1%
0;
#120000
0!
02
1'
#125000
1!
12
0'
17
03
1.
1#
04
#130000
0!
02
1'
#135000
1!
12
0'
07
13
0.
0#
14
19
08
1/
1$
#140000
0!
02
1'
#145000
1!
12
0'
17
03
1.
1#
04
#150000
0!
02
1'
#155000
1!
12
0'
07
13
0.
0#
14
09
18
0/
0$
0<
1:
00
0%
1;
0>
1=
01
0&
#160000
0!
02
1'
#165000
1!
12
0'
17
03
1.
1#
04
#170000
0!
02
1'
#175000
1!
12
0'
07
13
0.
0#
14
19
08
1/
1$
#180000
0!
02
1'
#185000
1!
12
0'
17
03
1.
1#
04
#190000
0!
02
1'
#195000
1!
12
0'
07
13
0.
0#
14
09
18
0/
0$
1<
0:
10
1%
0;
#200000
0!
02
1'
#205000
1!
12
0'
17
03
1.
1#
04
#210000
0!
02
1'
#215000
1!
12
0'
07
13
0.
0#
14
19
08
1/
1$
#220000
0!
02
1'
#225000
1!
12
0'
17
03
1.
1#
04
#230000
0!
02
1'
#235000
1!
12
0'
07
13
0.
0#
14
09
18
0/
0$
0<
1:
00
0%
1;
1>
0=
11
1&
#240000
0!
02
1'
#245000
1!
12
0'
17
03
1.
1#
04
#250000
0!
02
1'
#255000
1!
12
0'
07
13
0.
0#
14
19
08
1/
1$
#260000
0!
02
1'
#265000
1!
12
0'
17
03
1.
1#
04
#270000
0!
02
1'
#275000
1!
12
0'
07
13
0.
0#
14
09
18
0/
0$
1<
0:
10
1%
0;
#280000
0!
02
1'
#285000
1!
12
0'
17
03
1.
1#
04
#290000
0!
02
1'
#295000
1!
12
0'
07
13
0.
0#
14
19
08
1/
1$
#300000
0!
02
1'
#305000
1!
12
0'
17
03
1.
1#
04
#310000
0!
02
1'
#315000
1!
12
0'
07
13
0.
0#
14
09
18
0/
0$
0<
1:
00
0%
1;
0>
1=
01
0&
#320000
0!
02
1'
#325000
1!
12
0'
17
03
1.
1#
04
#330000
0!
02
1'
#335000
1!
12
0'
07
13
0.
0#
14
19
08
1/
1$
#340000
0!
02
1'
#345000
1!
12
0'
17
03
1.
1#
04
#350000
0!
02
1'
#355000
1!
12
0'
07
13
0.
0#
14
09
18
0/
0$
1<
0:
10
1%
0;
#360000
0!
02
1'
#365000
1!
12
0'
17
03
1.
1#
04
#370000
0!
02
1'
#375000
1!
12
0'
07
13
0.
0#
14
19
08
1/
1$
#380000
0!
02
1'
#385000
1!
12
0'
17
03
1.
1#
04
#390000
0!
02
1'
#395000
1!
12
0'
07
13
0.
0#
14
09
18
0/
0$
0<
1:
00
0%
1;
1>
0=
11
1&
#400000
0!
02
1'
#405000
1!
12
0'
17
03
1.
1#
04
#410000
0!
02
1'
#415000
1!
12
0'
07
13
0.
0#
14
19
08
1/
1$
#420000
0!
02
1'
#425000
1!
12
0'
17
03
1.
1#
04
#430000
0!
02
1'
#435000
1!
12
0'
07
13
0.
0#
14
09
18
0/
0$
1<
0:
10
1%
0;
#440000
0!
02
1'
#445000
1!
12
0'
17
03
1.
1#
04
#450000
0!
02
1'
#455000
1!
12
0'
07
13
0.
0#
14
19
08
1/
1$
#460000
0!
02
1'
#465000
1!
12
0'
17
03
1.
1#
04
#470000
0!
02
1'
#475000
1!
12
0'
07
13
0.
0#
14
09
18
0/
0$
0<
1:
00
0%
1;
0>
1=
01
0&
#480000
0!
02
1'
#485000
1!
12
0'
17
03
1.
1#
04
#490000
0!
02
1'
#495000
1!
12
0'
07
13
0.
0#
14
19
08
1/
1$
#500000
0!
02
1'
#505000
1!
12
0'
17
03
1.
1#
04
#510000
0!
02
1'
#515000
1!
12
0'
07
13
0.
0#
14
09
18
0/
0$
1<
0:
10
1%
0;
#520000
0!
02
1'
#525000
1!
12
0'
17
03
1.
1#
04
#530000
0!
02
1'
#535000
1!
12
0'
07
13
0.
0#
14
19
08
1/
1$
#540000
0!
02
1'
#545000
1!
12
0'
17
03
1.
1#
04
#550000
0!
02
1'
#555000
1!
12
0'
07
13
0.
0#
14
09
18
0/
0$
0<
1:
00
0%
1;
1>
0=
11
1&
#560000
0!
02
1'
#565000
1!
12
0'
17
03
1.
1#
04
#570000
0!
02
1'
#575000
1!
12
0'
07
13
0.
0#
14
19
08
1/
1$
#580000
0!
02
1'
#585000
1!
12
0'
17
03
1.
1#
04
#590000
0!
02
1'
#595000
1!
12
0'
07
13
0.
0#
14
09
18
0/
0$
1<
0:
10
1%
0;
#600000
0!
02
1'
#605000
1!
12
0'
17
03
1.
1#
04
#610000
0!
02
1'
#615000
1!
12
0'
07
13
0.
0#
14
19
08
1/
1$
#620000
0!
02
1'
#625000
1!
12
0'
17
03
1.
1#
04
#630000
0!
02
1'
#635000
1!
12
0'
07
13
0.
0#
14
09
18
0/
0$
0<
1:
00
0%
1;
0>
1=
01
0&
#640000
0!
02
1'
#645000
1!
12
0'
17
03
1.
1#
04
#650000
0!
02
1'
#655000
1!
12
0'
07
13
0.
0#
14
19
08
1/
1$
#660000
0!
02
1'
#665000
1!
12
0'
17
03
1.
1#
04
#670000
0!
02
1'
#675000
1!
12
0'
07
13
0.
0#
14
09
18
0/
0$
1<
0:
10
1%
0;
#680000
0!
02
1'
#685000
1!
12
0'
17
03
1.
1#
04
#690000
0!
02
1'
#695000
1!
12
0'
07
13
0.
0#
14
19
08
1/
1$
#700000
0!
02
1'
#705000
1!
12
0'
17
03
1.
1#
04
#710000
0!
02
1'
#715000
1!
12
0'
07
13
0.
0#
14
09
18
0/
0$
0<
1:
00
0%
1;
1>
0=
11
1&
#720000
0!
02
1'
#725000
1!
12
0'
17
03
1.
1#
04
#730000
0!
02
1'
#735000
1!
12
0'
07
13
0.
0#
14
19
08
1/
1$
#740000
0!
02
1'
#745000
1!
12
0'
17
03
1.
1#
04
#750000
0!
02
1'
#755000
1!
12
0'
07
13
0.
0#
14
09
18
0/
0$
1<
0:
10
1%
0;
#760000
0!
02
1'
#765000
1!
12
0'
17
03
1.
1#
04
#770000
0!
02
1'
#775000
1!
12
0'
07
13
0.
0#
14
19
08
1/
1$
#780000
0!
02
1'
#785000
1!
12
0'
17
03
1.
1#
04
#790000
0!
02
1'
#795000
1!
12
0'
07
13
0.
0#
14
09
18
0/
0$
0<
1:
00
0%
1;
0>
1=
01
0&
#800000
0!
02
1'
#805000
1!
12
0'
17
03
1.
1#
04
#810000
0!
02
1'
#815000
1!
12
0'
07
13
0.
0#
14
19
08
1/
1$
#820000
0!
02
1'
#825000
1!
12
0'
17
03
1.
1#
04
#830000
0!
02
1'
#835000
1!
12
0'
07
13
0.
0#
14
09
18
0/
0$
1<
0:
10
1%
0;
#840000
0!
02
1'
#845000
1!
12
0'
17
03
1.
1#
04
#850000
0!
02
1'
#855000
1!
12
0'
07
13
0.
0#
14
19
08
1/
1$
#860000
0!
02
1'
#865000
1!
12
0'
17
03
1.
1#
04
#870000
0!
02
1'
#875000
1!
12
0'
07
13
0.
0#
14
09
18
0/
0$
0<
1:
00
0%
1;
1>
0=
11
1&
#880000
0!
02
1'
#885000
1!
12
0'
17
03
1.
1#
04
#890000
0!
02
1'
#895000
1!
12
0'
07
13
0.
0#
14
19
08
1/
1$
#900000
0!
02
1'
#905000
1!
12
0'
17
03
1.
1#
04
#910000
0!
02
1'
#915000
1!
12
0'
07
13
0.
0#
14
09
18
0/
0$
1<
0:
10
1%
0;
#920000
0!
02
1'
#925000
1!
12
0'
17
03
1.
1#
04
#930000
0!
02
1'
#935000
1!
12
0'
07
13
0.
0#
14
19
08
1/
1$
#940000
0!
02
1'
#945000
1!
12
0'
17
03
1.
1#
04
#950000
0!
02
1'
#955000
1!
12
0'
07
13
0.
0#
14
09
18
0/
0$
0<
1:
00
0%
1;
0>
1=
01
0&
#960000
0!
02
1'
#965000
1!
12
0'
17
03
1.
1#
04
#970000
0!
02
1'
#975000
1!
12
0'
07
13
0.
0#
14
19
08
1/
1$
#980000
0!
02
1'
#985000
1!
12
0'
17
03
1.
1#
04
#990000
0!
02
1'
#995000
1!
12
0'
07
13
0.
0#
14
09
18
0/
0$
1<
0:
10
1%
0;
