TercerCorte/ImplementacionRelojDigital/simulation/qsim/ImplementacionRelojDigital.msim.vcd
$comment
	File created using the following command:
		vcd file ImplementacionRelojDigital.msim.vcd -direction
$end
$date
	Thu Mar 10 18:07:39 2022
$end
$version
	ModelSim Version 10.1d
$end
$timescale
	1ps
$end
$scope module ImplementacionRelojDigital_vlg_vec_tst $end
$var reg 1 ! CLk $end
$var wire 1 " CLK1Hz $end
$var wire 1 # sampler $end
$scope module i1 $end
$var wire 1 $ gnd $end
$var wire 1 % vcc $end
$var wire 1 & unknown $end
$var tri1 1 ' devclrn $end
$var tri1 1 ( devpor $end
$var tri1 1 ) devoe $end
$var wire 1 * inst6|synthesized_var_for_JKFF_inst3~q $end
$var wire 1 + inst6|synthesized_var_for_JKFF_inst2~q $end
$var wire 1 , inst6|synthesized_var_for_SYNTHESIZED_WIRE_19~q $end
$var wire 1 - inst6|SYNTHESIZED_WIRE_21~0_combout $end
$var wire 1 . inst6|synthesized_var_for_JKFF_inst52~q $end
$var wire 1 / inst4|synthesized_var_for_JKFF_inst3~q $end
$var wire 1 0 inst4|synthesized_var_for_JKFF_inst2~q $end
$var wire 1 1 inst4|synthesized_var_for_SYNTHESIZED_WIRE_19~q $end
$var wire 1 2 inst4|SYNTHESIZED_WIRE_21~0_combout $end
$var wire 1 3 inst4|synthesized_var_for_JKFF_inst52~q $end
$var wire 1 4 inst2|synthesized_var_for_JKFF_inst3~q $end
$var wire 1 5 inst2|synthesized_var_for_JKFF_inst2~q $end
$var wire 1 6 inst2|synthesized_var_for_SYNTHESIZED_WIRE_19~q $end
$var wire 1 7 inst2|SYNTHESIZED_WIRE_21~0_combout $end
$var wire 1 8 inst2|synthesized_var_for_JKFF_inst52~q $end
$var wire 1 9 inst5|synthesized_var_for_JKFF_inst3~q $end
$var wire 1 : inst5|synthesized_var_for_JKFF_inst2~q $end
$var wire 1 ; inst5|synthesized_var_for_SYNTHESIZED_WIRE_19~q $end
$var wire 1 < inst5|SYNTHESIZED_WIRE_21~0_combout $end
$var wire 1 = inst5|synthesized_var_for_JKFF_inst52~q $end
$var wire 1 > inst3|synthesized_var_for_JKFF_inst3~q $end
$var wire 1 ? inst3|synthesized_var_for_JKFF_inst2~q $end
$var wire 1 @ inst3|synthesized_var_for_SYNTHESIZED_WIRE_19~q $end
$var wire 1 A inst3|SYNTHESIZED_WIRE_21~0_combout $end
$var wire 1 B inst3|synthesized_var_for_JKFF_inst52~q $end
$var wire 1 C inst1|synthesized_var_for_JKFF_inst3~q $end
$var wire 1 D inst1|synthesized_var_for_JKFF_inst2~q $end
$var wire 1 E inst1|synthesized_var_for_SYNTHESIZED_WIRE_19~q $end
$var wire 1 F inst1|SYNTHESIZED_WIRE_21~0_combout $end
$var wire 1 G inst1|synthesized_var_for_JKFF_inst52~q $end
$var wire 1 H inst|synthesized_var_for_JKFF_inst3~q $end
$var wire 1 I inst|synthesized_var_for_JKFF_inst2~q $end
$var wire 1 J inst|synthesized_var_for_SYNTHESIZED_WIRE_19~q $end
$var wire 1 K inst|SYNTHESIZED_WIRE_21~0_combout $end
$var wire 1 L inst|synthesized_var_for_JKFF_inst52~q $end
$var wire 1 M inst6|synthesized_var_for_JKFF_inst3~0_combout $end
$var wire 1 N inst6|synthesized_var_for_JKFF_inst2~0_combout $end
$var wire 1 O inst6|synthesized_var_for_SYNTHESIZED_WIRE_19~0_combout $end
$var wire 1 P inst6|synthesized_var_for_JKFF_inst52~0_combout $end
$var wire 1 Q inst4|synthesized_var_for_JKFF_inst3~0_combout $end
$var wire 1 R inst4|synthesized_var_for_JKFF_inst2~0_combout $end
$var wire 1 S inst4|synthesized_var_for_SYNTHESIZED_WIRE_19~0_combout $end
$var wire 1 T inst4|synthesized_var_for_JKFF_inst52~0_combout $end
$var wire 1 U inst2|synthesized_var_for_JKFF_inst3~0_combout $end
$var wire 1 V inst2|synthesized_var_for_JKFF_inst2~0_combout $end
$var wire 1 W inst2|synthesized_var_for_SYNTHESIZED_WIRE_19~0_combout $end
$var wire 1 X inst2|synthesized_var_for_JKFF_inst52~0_combout $end
$var wire 1 Y inst5|synthesized_var_for_JKFF_inst3~0_combout $end
$var wire 1 Z inst5|synthesized_var_for_JKFF_inst2~0_combout $end
$var wire 1 [ inst5|synthesized_var_for_SYNTHESIZED_WIRE_19~0_combout $end
$var wire 1 \ inst5|synthesized_var_for_JKFF_inst52~0_combout $end
$var wire 1 ] inst3|synthesized_var_for_JKFF_inst3~0_combout $end
$var wire 1 ^ inst3|synthesized_var_for_JKFF_inst2~0_combout $end
$var wire 1 _ inst3|synthesized_var_for_SYNTHESIZED_WIRE_19~0_combout $end
$var wire 1 ` inst3|synthesized_var_for_JKFF_inst52~0_combout $end
$var wire 1 a inst1|synthesized_var_for_JKFF_inst3~0_combout $end
$var wire 1 b inst1|synthesized_var_for_JKFF_inst2~0_combout $end
$var wire 1 c inst1|synthesized_var_for_SYNTHESIZED_WIRE_19~0_combout $end
$var wire 1 d inst1|synthesized_var_for_JKFF_inst52~0_combout $end
$var wire 1 e inst|synthesized_var_for_JKFF_inst3~0_combout $end
$var wire 1 f inst|synthesized_var_for_JKFF_inst2~0_combout $end
$var wire 1 g inst|synthesized_var_for_SYNTHESIZED_WIRE_19~0_combout $end
$var wire 1 h inst|synthesized_var_for_JKFF_inst52~0_combout $end
$var wire 1 i CLk~input_o $end
$var wire 1 j inst6|synthesized_var_for_JKFF_inst2~feeder_combout $end
$var wire 1 k inst6|synthesized_var_for_JKFF_inst52~feeder_combout $end
$var wire 1 l inst4|synthesized_var_for_JKFF_inst3~feeder_combout $end
$var wire 1 m inst4|synthesized_var_for_JKFF_inst2~feeder_combout $end
$var wire 1 n inst4|synthesized_var_for_SYNTHESIZED_WIRE_19~feeder_combout $end
$var wire 1 o inst4|synthesized_var_for_JKFF_inst52~feeder_combout $end
$var wire 1 p inst2|synthesized_var_for_JKFF_inst3~feeder_combout $end
$var wire 1 q inst2|synthesized_var_for_SYNTHESIZED_WIRE_19~feeder_combout $end
$var wire 1 r inst2|synthesized_var_for_JKFF_inst52~feeder_combout $end
$var wire 1 s inst5|synthesized_var_for_JKFF_inst2~feeder_combout $end
$var wire 1 t inst5|synthesized_var_for_SYNTHESIZED_WIRE_19~feeder_combout $end
$var wire 1 u inst3|synthesized_var_for_JKFF_inst3~feeder_combout $end
$var wire 1 v inst3|synthesized_var_for_JKFF_inst2~feeder_combout $end
$var wire 1 w inst3|synthesized_var_for_SYNTHESIZED_WIRE_19~feeder_combout $end
$var wire 1 x inst3|synthesized_var_for_JKFF_inst52~feeder_combout $end
$var wire 1 y inst1|synthesized_var_for_JKFF_inst3~feeder_combout $end
$var wire 1 z inst1|synthesized_var_for_JKFF_inst2~feeder_combout $end
$var wire 1 { inst1|synthesized_var_for_SYNTHESIZED_WIRE_19~feeder_combout $end
$var wire 1 | inst1|synthesized_var_for_JKFF_inst52~feeder_combout $end
$var wire 1 } inst|synthesized_var_for_JKFF_inst3~feeder_combout $end
$var wire 1 ~ inst|synthesized_var_for_JKFF_inst2~feeder_combout $end
$var wire 1 !! inst|synthesized_var_for_SYNTHESIZED_WIRE_19~feeder_combout $end
$var wire 1 "! inst|synthesized_var_for_JKFF_inst52~feeder_combout $end
$var wire 1 #! CLK1Hz~output_o $end
$var wire 1 $! inst54|synthesized_var_for_JKFF_inst1~0_combout $end
$var wire 1 %! inst54|synthesized_var_for_JKFF_inst1~feeder_combout $end
$var wire 1 &! inst54|synthesized_var_for_SYNTHESIZED_WIRE_14~0_combout $end
$var wire 1 '! inst54|synthesized_var_for_SYNTHESIZED_WIRE_14~feeder_combout $end
$var wire 1 (! inst54|synthesized_var_for_SYNTHESIZED_WIRE_14~q $end
$var wire 1 )! inst54|SYNTHESIZED_WIRE_16~0_combout $end
$var wire 1 *! inst54|synthesized_var_for_JKFF_inst1~q $end
$var wire 1 +! inst54|synthesized_var_for_JKFF_inst2~0_combout $end
$var wire 1 ,! inst54|synthesized_var_for_JKFF_inst2~q $end
$upscope $end
$upscope $end
$enddefinitions $end
#0
$dumpvars
0!
0"
x#
0$
1%
x&
1'
1(
1)
0*
0+
0,
0-
0.
0/
00
01
02
03
04
05
06
07
08
09
0:
0;
0<
0=
0>
0?
0@
0A
0B
0C
0D
0E
0F
0G
0H
0I
0J
0K
0L
1M
1N
1O
1P
1Q
1R
1S
1T
1U
1V
1W
1X
1Y
1Z
1[
1\
1]
1^
1_
1`
1a
1b
1c
1d
1e
1f
1g
1h
0i
1j
1k
1l
1m
1n
1o
1p
1q
1r
1s
1t
1u
1v
1w
1x
1y
1z
1{
1|
1}
1~
1!!
1"!
0#!
1$!
1%!
1&!
1'!
0(!
0)!
0*!
1+!
0,!
$end
#1000
1!
1i
0#
1L
0h
0"!
#2000
0!
0i
1#
#3000
1!
1i
0#
0L
1h
1"!
1J
0g
0!!
#4000
0!
0i
1#
#5000
1!
1i
0#
1L
0h
0"!
#6000
0!
0i
1#
#7000
1!
1i
0#
0L
1h
1"!
0J
1g
1!!
1I
0f
0~
#8000
0!
0i
1#
#9000
1!
1i
0#
1L
0h
0"!
#10000
0!
0i
1#
#11000
1!
1i
0#
0L
1h
1"!
1J
0g
0!!
#12000
0!
0i
1#
#13000
1!
1i
0#
1L
0h
0"!
#14000
0!
0i
1#
#15000
1!
1i
0#
0L
1h
1"!
0J
1g
1!!
0I
1f
1~
1H
0e
0}
1G
0d
0|
#16000
0!
0i
1#
#17000
1!
1i
0#
1L
0h
0"!
#18000
0!
0i
1#
#19000
1!
1i
0#
0L
1h
1"!
1J
0g
1K
0!!
0H
0J
1e
0K
1g
1}
1!!
#20000
0!
0i
1#
#21000
1!
1i
0#
1L
0h
0"!
#22000
0!
0i
1#
#23000
1!
1i
0#
0L
1h
1"!
1J
0g
0!!
#24000
0!
0i
1#
#25000
1!
1i
0#
1L
0h
0"!
#26000
0!
0i
1#
#27000
1!
1i
0#
0L
1h
1"!
0J
1g
1!!
1I
0f
0~
#28000
0!
0i
1#
#29000
1!
1i
0#
1L
0h
0"!
#30000
0!
0i
1#
#31000
1!
1i
0#
0L
1h
1"!
1J
0g
0!!
#32000
0!
0i
1#
#33000
1!
1i
0#
1L
0h
0"!
#34000
0!
0i
1#
#35000
1!
1i
0#
0L
1h
1"!
0J
1g
1!!
0I
1f
1~
1H
0e
0}
0G
1d
1|
1E
0c
0{
#36000
0!
0i
1#
#37000
1!
1i
0#
1L
0h
0"!
#38000
0!
0i
1#
#39000
1!
1i
0#
0L
1h
1"!
1J
0g
1K
0!!
0H
0J
1e
0K
1g
1}
1!!
#40000
0!
0i
1#
#41000
1!
1i
0#
1L
0h
0"!
#42000
0!
0i
1#
#43000
1!
1i
0#
0L
1h
1"!
1J
0g
0!!
#44000
0!
0i
1#
#45000
1!
1i
0#
1L
0h
0"!
#46000
0!
0i
1#
#47000
1!
1i
0#
0L
1h
1"!
0J
1g
1!!
1I
0f
0~
#48000
0!
0i
1#
#49000
1!
1i
0#
1L
0h
0"!
#50000
0!
0i
1#
#51000
1!
1i
0#
0L
1h
1"!
1J
0g
0!!
#52000
0!
0i
1#
#53000
1!
1i
0#
1L
0h
0"!
#54000
0!
0i
1#
#55000
1!
1i
0#
0L
1h
1"!
0J
1g
1!!
0I
1f
1~
1H
0e
0}
1G
0d
0|
#56000
0!
0i
1#
#57000
1!
1i
0#
1L
0h
0"!
#58000
0!
0i
1#
#59000
1!
1i
0#
0L
1h
1"!
1J
0g
1K
0!!
0H
0J
1e
0K
1g
1}
1!!
#60000
0!
0i
1#
#61000
1!
1i
0#
1L
0h
0"!
#62000
0!
0i
1#
#63000
1!
1i
0#
0L
1h
1"!
1J
0g
0!!
#64000
0!
0i
1#
#65000
1!
1i
0#
1L
0h
0"!
#66000
0!
0i
1#
#67000
1!
1i
0#
0L
1h
1"!
0J
1g
1!!
1I
0f
0~
#68000
0!
0i
1#
#69000
1!
1i
0#
1L
0h
0"!
#70000
0!
0i
1#
#71000
1!
1i
0#
0L
1h
1"!
1J
0g
0!!
#72000
0!
0i
1#
#73000
1!
1i
0#
1L
0h
0"!
#74000
0!
0i
1#
#75000
1!
1i
0#
0L
1h
1"!
0J
1g
1!!
0I
1f
1~
1H
0e
0}
0G
1d
1|
0E
1c
1{
1D
0b
0z
#76000
0!
0i
1#
#77000
1!
1i
0#
1L
0h
0"!
#78000
0!
0i
1#
#79000
1!
1i
0#
0L
1h
1"!
1J
0g
1K
0!!
0H
0J
1e
0K
1g
1}
1!!
#80000
0!
0i
1#
#81000
1!
1i
0#
1L
0h
0"!
#82000
0!
0i
1#
#83000
1!
1i
0#
0L
1h
1"!
1J
0g
0!!
#84000
0!
0i
1#
#85000
1!
1i
0#
1L
0h
0"!
#86000
0!
0i
1#
#87000
1!
1i
0#
0L
1h
1"!
0J
1g
1!!
1I
0f
0~
#88000
0!
0i
1#
#89000
1!
1i
0#
1L
0h
0"!
#90000
0!
0i
1#
#91000
1!
1i
0#
0L
1h
1"!
1J
0g
0!!
#92000
0!
0i
1#
#93000
1!
1i
0#
1L
0h
0"!
#94000
0!
0i
1#
#95000
1!
1i
0#
0L
1h
1"!
0J
1g
1!!
0I
1f
1~
1H
0e
0}
1G
0d
0|
#96000
0!
0i
1#
#97000
1!
1i
0#
1L
0h
0"!
#98000
0!
0i
1#
#99000
1!
1i
0#
0L
1h
1"!
1J
0g
1K
0!!
0H
0J
1e
0K
1g
1}
1!!
#100000
0!
0i
1#
#101000
1!
1i
0#
1L
0h
0"!
#102000
0!
0i
1#
#103000
1!
1i
0#
0L
1h
1"!
1J
0g
0!!
#104000
0!
0i
1#
#105000
1!
1i
0#
1L
0h
0"!
#106000
0!
0i
1#
#107000
1!
1i
0#
0L
1h
1"!
0J
1g
1!!
1I
0f
0~
#108000
0!
0i
1#
#109000
1!
1i
0#
1L
0h
0"!
#110000
0!
0i
1#
#111000
1!
1i
0#
0L
1h
1"!
1J
0g
0!!
#112000
0!
0i
1#
#113000
1!
1i
0#
1L
0h
0"!
#114000
0!
0i
1#
#115000
1!
1i
0#
0L
1h
1"!
0J
1g
1!!
0I
1f
1~
1H
0e
0}
0G
1d
1|
1E
0c
0{
#116000
0!
0i
1#
#117000
1!
1i
0#
1L
0h
0"!
#118000
0!
0i
1#
#119000
1!
1i
0#
0L
1h
1"!
1J
0g
1K
0!!
0H
0J
1e
0K
1g
1}
1!!
#120000
0!
0i
1#
#121000
1!
1i
0#
1L
0h
0"!
#122000
0!
0i
1#
#123000
1!
1i
0#
0L
1h
1"!
1J
0g
0!!
#124000
0!
0i
1#
#125000
1!
1i
0#
1L
0h
0"!
#126000
0!
0i
1#
#127000
1!
1i
0#
0L
1h
1"!
0J
1g
1!!
1I
0f
0~
#128000
0!
0i
1#
#129000
1!
1i
0#
1L
0h
0"!
#130000
0!
0i
1#
#131000
1!
1i
0#
0L
1h
1"!
1J
0g
0!!
#132000
0!
0i
1#
#133000
1!
1i
0#
1L
0h
0"!
#134000
0!
0i
1#
#135000
1!
1i
0#
0L
1h
1"!
0J
1g
1!!
0I
1f
1~
1H
0e
0}
1G
0d
0|
#136000
0!
0i
1#
#137000
1!
1i
0#
1L
0h
0"!
#138000
0!
0i
1#
#139000
1!
1i
0#
0L
1h
1"!
1J
0g
1K
0!!
0H
0J
1e
0K
1g
1}
1!!
#140000
0!
0i
1#
#141000
1!
1i
0#
1L
0h
0"!
#142000
0!
0i
1#
#143000
1!
1i
0#
0L
1h
1"!
1J
0g
0!!
#144000
0!
0i
1#
#145000
1!
1i
0#
1L
0h
0"!
#146000
0!
0i
1#
#147000
1!
1i
0#
0L
1h
1"!
0J
1g
1!!
1I
0f
0~
#148000
0!
0i
1#
#149000
1!
1i
0#
1L
0h
0"!
#150000
0!
0i
1#
#151000
1!
1i
0#
0L
1h
1"!
1J
0g
0!!
#152000
0!
0i
1#
#153000
1!
1i
0#
1L
0h
0"!
#154000
0!
0i
1#
#155000
1!
1i
0#
0L
1h
1"!
0J
1g
1!!
0I
1f
1~
1H
0e
0}
0G
1d
1|
0E
1c
1{
0D
1b
1z
1C
0a
0y
1B
0`
0x
#156000
0!
0i
1#
#157000
1!
1i
0#
1L
0h
0"!
#158000
0!
0i
1#
#159000
1!
1i
0#
0L
1h
1"!
1J
0g
1K
0!!
0H
0J
1e
0K
1g
1}
1!!
#160000
0!
0i
1#
#161000
1!
1i
0#
1L
0h
0"!
#162000
0!
0i
1#
#163000
1!
1i
0#
0L
1h
1"!
1J
0g
0!!
#164000
0!
0i
1#
#165000
1!
1i
0#
1L
0h
0"!
#166000
0!
0i
1#
#167000
1!
1i
0#
0L
1h
1"!
0J
1g
1!!
1I
0f
0~
#168000
0!
0i
1#
#169000
1!
1i
0#
1L
0h
0"!
#170000
0!
0i
1#
#171000
1!
1i
0#
0L
1h
1"!
1J
0g
0!!
#172000
0!
0i
1#
#173000
1!
1i
0#
1L
0h
0"!
#174000
0!
0i
1#
#175000
1!
1i
0#
0L
1h
1"!
0J
1g
1!!
0I
1f
1~
1H
0e
0}
1G
0d
0|
#176000
0!
0i
1#
#177000
1!
1i
0#
1L
0h
0"!
#178000
0!
0i
1#
#179000
1!
1i
0#
0L
1h
1"!
1J
0g
1K
0!!
0H
0J
1e
0K
1g
1}
1!!
#180000
0!
0i
1#
#181000
1!
1i
0#
1L
0h
0"!
#182000
0!
0i
1#
#183000
1!
1i
0#
0L
1h
1"!
1J
0g
0!!
#184000
0!
0i
1#
#185000
1!
1i
0#
1L
0h
0"!
#186000
0!
0i
1#
#187000
1!
1i
0#
0L
1h
1"!
0J
1g
1!!
1I
0f
0~
#188000
0!
0i
1#
#189000
1!
1i
0#
1L
0h
0"!
#190000
0!
0i
1#
#191000
1!
1i
0#
0L
1h
1"!
1J
0g
0!!
#192000
0!
0i
1#
#193000
1!
1i
0#
1L
0h
0"!
#194000
0!
0i
1#
#195000
1!
1i
0#
0L
1h
1"!
0J
1g
1!!
0I
1f
1~
1H
0e
0}
0G
1d
1|
1E
0c
1F
0{
0C
0E
1a
0F
1c
1y
1{
#196000
0!
0i
1#
#197000
1!
1i
0#
1L
0h
0"!
#198000
0!
0i
1#
#199000
1!
1i
0#
0L
1h
1"!
1J
0g
1K
0!!
0H
0J
1e
0K
1g
1}
1!!
#200000
0!
0i
1#
#201000
1!
1i
0#
1L
0h
0"!
#202000
0!
0i
1#
#203000
1!
1i
0#
0L
1h
1"!
1J
0g
0!!
#204000
0!
0i
1#
#205000
1!
1i
0#
1L
0h
0"!
#206000
0!
0i
1#
#207000
1!
1i
0#
0L
1h
1"!
0J
1g
1!!
1I
0f
0~
#208000
0!
0i
1#
#209000
1!
1i
0#
1L
0h
0"!
#210000
0!
0i
1#
#211000
1!
1i
0#
0L
1h
1"!
1J
0g
0!!
#212000
0!
0i
1#
#213000
1!
1i
0#
1L
0h
0"!
#214000
0!
0i
1#
#215000
1!
1i
0#
0L
1h
1"!
0J
1g
1!!
0I
1f
1~
1H
0e
0}
1G
0d
0|
#216000
0!
0i
1#
#217000
1!
1i
0#
1L
0h
0"!
#218000
0!
0i
1#
#219000
1!
1i
0#
0L
1h
1"!
1J
0g
1K
0!!
0H
0J
1e
0K
1g
1}
1!!
#220000
0!
0i
1#
#221000
1!
1i
0#
1L
0h
0"!
#222000
0!
0i
1#
#223000
1!
1i
0#
0L
1h
1"!
1J
0g
0!!
#224000
0!
0i
1#
#225000
1!
1i
0#
1L
0h
0"!
#226000
0!
0i
1#
#227000
1!
1i
0#
0L
1h
1"!
0J
1g
1!!
1I
0f
0~
#228000
0!
0i
1#
#229000
1!
1i
0#
1L
0h
0"!
#230000
0!
0i
1#
#231000
1!
1i
0#
0L
1h
1"!
1J
0g
0!!
#232000
0!
0i
1#
#233000
1!
1i
0#
1L
0h
0"!
#234000
0!
0i
1#
#235000
1!
1i
0#
0L
1h
1"!
0J
1g
1!!
0I
1f
1~
1H
0e
0}
0G
1d
1|
1E
0c
0{
#236000
0!
0i
1#
#237000
1!
1i
0#
1L
0h
0"!
#238000
0!
0i
1#
#239000
1!
1i
0#
0L
1h
1"!
1J
0g
1K
0!!
0H
0J
1e
0K
1g
1}
1!!
#240000
0!
0i
1#
#241000
1!
1i
0#
1L
0h
0"!
#242000
0!
0i
1#
#243000
1!
1i
0#
0L
1h
1"!
1J
0g
0!!
#244000
0!
0i
1#
#245000
1!
1i
0#
1L
0h
0"!
#246000
0!
0i
1#
#247000
1!
1i
0#
0L
1h
1"!
0J
1g
1!!
1I
0f
0~
#248000
0!
0i
1#
#249000
1!
1i
0#
1L
0h
0"!
#250000
0!
0i
1#
#251000
1!
1i
0#
0L
1h
1"!
1J
0g
0!!
#252000
0!
0i
1#
#253000
1!
1i
0#
1L
0h
0"!
#254000
0!
0i
1#
#255000
1!
1i
0#
0L
1h
1"!
0J
1g
1!!
0I
1f
1~
1H
0e
0}
1G
0d
0|
#256000
0!
0i
1#
#257000
1!
1i
0#
1L
0h
0"!
#258000
0!
0i
1#
#259000
1!
1i
0#
0L
1h
1"!
1J
0g
1K
0!!
0H
0J
1e
0K
1g
1}
1!!
#260000
0!
0i
1#
#261000
1!
1i
0#
1L
0h
0"!
#262000
0!
0i
1#
#263000
1!
1i
0#
0L
1h
1"!
1J
0g
0!!
#264000
0!
0i
1#
#265000
1!
1i
0#
1L
0h
0"!
#266000
0!
0i
1#
#267000
1!
1i
0#
0L
1h
1"!
0J
1g
1!!
1I
0f
0~
#268000
0!
0i
1#
#269000
1!
1i
0#
1L
0h
0"!
#270000
0!
0i
1#
#271000
1!
1i
0#
0L
1h
1"!
1J
0g
0!!
#272000
0!
0i
1#
#273000
1!
1i
0#
1L
0h
0"!
#274000
0!
0i
1#
#275000
1!
1i
0#
0L
1h
1"!
0J
1g
1!!
0I
1f
1~
1H
0e
0}
0G
1d
1|
0E
1c
1{
1D
0b
0z
#276000
0!
0i
1#
#277000
1!
1i
0#
1L
0h
0"!
#278000
0!
0i
1#
#279000
1!
1i
0#
0L
1h
1"!
1J
0g
1K
0!!
0H
0J
1e
0K
1g
1}
1!!
#280000
0!
0i
1#
#281000
1!
1i
0#
1L
0h
0"!
#282000
0!
0i
1#
#283000
1!
1i
0#
0L
1h
1"!
1J
0g
0!!
#284000
0!
0i
1#
#285000
1!
1i
0#
1L
0h
0"!
#286000
0!
0i
1#
#287000
1!
1i
0#
0L
1h
1"!
0J
1g
1!!
1I
0f
0~
#288000
0!
0i
1#
#289000
1!
1i
0#
1L
0h
0"!
#290000
0!
0i
1#
#291000
1!
1i
0#
0L
1h
1"!
1J
0g
0!!
#292000
0!
0i
1#
#293000
1!
1i
0#
1L
0h
0"!
#294000
0!
0i
1#
#295000
1!
1i
0#
0L
1h
1"!
0J
1g
1!!
0I
1f
1~
1H
0e
0}
1G
0d
0|
#296000
0!
0i
1#
#297000
1!
1i
0#
1L
0h
0"!
#298000
0!
0i
1#
#299000
1!
1i
0#
0L
1h
1"!
1J
0g
1K
0!!
0H
0J
1e
0K
1g
1}
1!!
#300000
0!
0i
1#
#301000
1!
1i
0#
1L
0h
0"!
#302000
0!
0i
1#
#303000
1!
1i
0#
0L
1h
1"!
1J
0g
0!!
#304000
0!
0i
1#
#305000
1!
1i
0#
1L
0h
0"!
#306000
0!
0i
1#
#307000
1!
1i
0#
0L
1h
1"!
0J
1g
1!!
1I
0f
0~
#308000
0!
0i
1#
#309000
1!
1i
0#
1L
0h
0"!
#310000
0!
0i
1#
#311000
1!
1i
0#
0L
1h
1"!
1J
0g
0!!
#312000
0!
0i
1#
#313000
1!
1i
0#
1L
0h
0"!
#314000
0!
0i
1#
#315000
1!
1i
0#
0L
1h
1"!
0J
1g
1!!
0I
1f
1~
1H
0e
0}
0G
1d
1|
1E
0c
0{
#316000
0!
0i
1#
#317000
1!
1i
0#
1L
0h
0"!
#318000
0!
0i
1#
#319000
1!
1i
0#
0L
1h
1"!
1J
0g
1K
0!!
0H
0J
1e
0K
1g
1}
1!!
#320000
0!
0i
1#
#321000
1!
1i
0#
1L
0h
0"!
#322000
0!
0i
1#
#323000
1!
1i
0#
0L
1h
1"!
1J
0g
0!!
#324000
0!
0i
1#
#325000
1!
1i
0#
1L
0h
0"!
#326000
0!
0i
1#
#327000
1!
1i
0#
0L
1h
1"!
0J
1g
1!!
1I
0f
0~
#328000
0!
0i
1#
#329000
1!
1i
0#
1L
0h
0"!
#330000
0!
0i
1#
#331000
1!
1i
0#
0L
1h
1"!
1J
0g
0!!
#332000
0!
0i
1#
#333000
1!
1i
0#
1L
0h
0"!
#334000
0!
0i
1#
#335000
1!
1i
0#
0L
1h
1"!
0J
1g
1!!
0I
1f
1~
1H
0e
0}
1G
0d
0|
#336000
0!
0i
1#
#337000
1!
1i
0#
1L
0h
0"!
#338000
0!
0i
1#
#339000
1!
1i
0#
0L
1h
1"!
1J
0g
1K
0!!
0H
0J
1e
0K
1g
1}
1!!
#340000
0!
0i
1#
#341000
1!
1i
0#
1L
0h
0"!
#342000
0!
0i
1#
#343000
1!
1i
0#
0L
1h
1"!
1J
0g
0!!
#344000
0!
0i
1#
#345000
1!
1i
0#
1L
0h
0"!
#346000
0!
0i
1#
#347000
1!
1i
0#
0L
1h
1"!
0J
1g
1!!
1I
0f
0~
#348000
0!
0i
1#
#349000
1!
1i
0#
1L
0h
0"!
#350000
0!
0i
1#
#351000
1!
1i
0#
0L
1h
1"!
1J
0g
0!!
#352000
0!
0i
1#
#353000
1!
1i
0#
1L
0h
0"!
#354000
0!
0i
1#
#355000
1!
1i
0#
0L
1h
1"!
0J
1g
1!!
0I
1f
1~
1H
0e
0}
0G
1d
1|
0E
1c
1{
0D
1b
1z
1C
0a
0y
0B
1`
1x
1@
0_
0w
#356000
0!
0i
1#
#357000
1!
1i
0#
1L
0h
0"!
#358000
0!
0i
1#
#359000
1!
1i
0#
0L
1h
1"!
1J
0g
1K
0!!
0H
0J
1e
0K
1g
1}
1!!
#360000
0!
0i
1#
#361000
1!
1i
0#
1L
0h
0"!
#362000
0!
0i
1#
#363000
1!
1i
0#
0L
1h
1"!
1J
0g
0!!
#364000
0!
0i
1#
#365000
1!
1i
0#
1L
0h
0"!
#366000
0!
0i
1#
#367000
1!
1i
0#
0L
1h
1"!
0J
1g
1!!
1I
0f
0~
#368000
0!
0i
1#
#369000
1!
1i
0#
1L
0h
0"!
#370000
0!
0i
1#
#371000
1!
1i
0#
0L
1h
1"!
1J
0g
0!!
#372000
0!
0i
1#
#373000
1!
1i
0#
1L
0h
0"!
#374000
0!
0i
1#
#375000
1!
1i
0#
0L
1h
1"!
0J
1g
1!!
0I
1f
1~
1H
0e
0}
1G
0d
0|
#376000
0!
0i
1#
#377000
1!
1i
0#
1L
0h
0"!
#378000
0!
0i
1#
#379000
1!
1i
0#
0L
1h
1"!
1J
0g
1K
0!!
0H
0J
1e
0K
1g
1}
1!!
#380000
0!
0i
1#
#381000
1!
1i
0#
1L
0h
0"!
#382000
0!
0i
1#
#383000
1!
1i
0#
0L
1h
1"!
1J
0g
0!!
#384000
0!
0i
1#
#385000
1!
1i
0#
1L
0h
0"!
#386000
0!
0i
1#
#387000
1!
1i
0#
0L
1h
1"!
0J
1g
1!!
1I
0f
0~
#388000
0!
0i
1#
#389000
1!
1i
0#
1L
0h
0"!
#390000
0!
0i
1#
#391000
1!
1i
0#
0L
1h
1"!
1J
0g
0!!
#392000
0!
0i
1#
#393000
1!
1i
0#
1L
0h
0"!
#394000
0!
0i
1#
#395000
1!
1i
0#
0L
1h
1"!
0J
1g
1!!
0I
1f
1~
1H
0e
0}
0G
1d
1|
1E
0c
1F
0{
0C
0E
1a
0F
1c
1y
1{
#396000
0!
0i
1#
#397000
1!
1i
0#
1L
0h
0"!
#398000
0!
0i
1#
#399000
1!
1i
0#
0L
1h
1"!
1J
0g
1K
0!!
0H
0J
1e
0K
1g
1}
1!!
#400000
0!
0i
1#
#401000
1!
1i
0#
1L
0h
0"!
#402000
0!
0i
1#
#403000
1!
1i
0#
0L
1h
1"!
1J
0g
0!!
#404000
0!
0i
1#
#405000
1!
1i
0#
1L
0h
0"!
#406000
0!
0i
1#
#407000
1!
1i
0#
0L
1h
1"!
0J
1g
1!!
1I
0f
0~
#408000
0!
0i
1#
#409000
1!
1i
0#
1L
0h
0"!
#410000
0!
0i
1#
#411000
1!
1i
0#
0L
1h
1"!
1J
0g
0!!
#412000
0!
0i
1#
#413000
1!
1i
0#
1L
0h
0"!
#414000
0!
0i
1#
#415000
1!
1i
0#
0L
1h
1"!
0J
1g
1!!
0I
1f
1~
1H
0e
0}
1G
0d
0|
#416000
0!
0i
1#
#417000
1!
1i
0#
1L
0h
0"!
#418000
0!
0i
1#
#419000
1!
1i
0#
0L
1h
1"!
1J
0g
1K
0!!
0H
0J
1e
0K
1g
1}
1!!
#420000
0!
0i
1#
#421000
1!
1i
0#
1L
0h
0"!
#422000
0!
0i
1#
#423000
1!
1i
0#
0L
1h
1"!
1J
0g
0!!
#424000
0!
0i
1#
#425000
1!
1i
0#
1L
0h
0"!
#426000
0!
0i
1#
#427000
1!
1i
0#
0L
1h
1"!
0J
1g
1!!
1I
0f
0~
#428000
0!
0i
1#
#429000
1!
1i
0#
1L
0h
0"!
#430000
0!
0i
1#
#431000
1!
1i
0#
0L
1h
1"!
1J
0g
0!!
#432000
0!
0i
1#
#433000
1!
1i
0#
1L
0h
0"!
#434000
0!
0i
1#
#435000
1!
1i
0#
0L
1h
1"!
0J
1g
1!!
0I
1f
1~
1H
0e
0}
0G
1d
1|
1E
0c
0{
#436000
0!
0i
1#
#437000
1!
1i
0#
1L
0h
0"!
#438000
0!
0i
1#
#439000
1!
1i
0#
0L
1h
1"!
1J
0g
1K
0!!
0H
0J
1e
0K
1g
1}
1!!
#440000
0!
0i
1#
