TercerCorte/RelojSegundero/simulation/qsim/RelojSegundero.msim.vcd
$comment
	File created using the following command:
		vcd file RelojSegundero.msim.vcd -direction
$end
$date
	Tue Mar 08 16:37:08 2022
$end
$version
	ModelSim Version 10.1d
$end
$timescale
	1ps
$end
$scope module RelojSegundero_vlg_vec_tst $end
$var reg 1 ! CLK $end
$var wire 1 " A0 $end
$var wire 1 # A1 $end
$var wire 1 $ A2 $end
$var wire 1 % A3 $end
$var wire 1 & A4 $end
$var wire 1 ' A5 $end
$var wire 1 ( A6 $end
$var wire 1 ) sampler $end
$scope module i1 $end
$var wire 1 * gnd $end
$var wire 1 + vcc $end
$var wire 1 , unknown $end
$var tri1 1 - devclrn $end
$var tri1 1 . devpor $end
$var tri1 1 / devoe $end
$var wire 1 0 inst2|synthesized_var_for_SYNTHESIZED_WIRE_14~0_combout $end
$var wire 1 1 A0~output_o $end
$var wire 1 2 A1~output_o $end
$var wire 1 3 A2~output_o $end
$var wire 1 4 A3~output_o $end
$var wire 1 5 A4~output_o $end
$var wire 1 6 A5~output_o $end
$var wire 1 7 A6~output_o $end
$var wire 1 8 CLK~input_o $end
$var wire 1 9 inst|synthesized_var_for_JKFF_inst52~0_combout $end
$var wire 1 : inst|synthesized_var_for_JKFF_inst52~feeder_combout $end
$var wire 1 ; inst|synthesized_var_for_JKFF_inst3~0_combout $end
$var wire 1 < inst|synthesized_var_for_JKFF_inst3~q $end
$var wire 1 = inst|synthesized_var_for_SYNTHESIZED_WIRE_19~0_combout $end
$var wire 1 > inst|synthesized_var_for_SYNTHESIZED_WIRE_19~q $end
$var wire 1 ? inst1~combout $end
$var wire 1 @ inst|synthesized_var_for_JKFF_inst52~q $end
$var wire 1 A inst|synthesized_var_for_JKFF_inst2~0_combout $end
$var wire 1 B inst|synthesized_var_for_JKFF_inst2~feeder_combout $end
$var wire 1 C inst|synthesized_var_for_JKFF_inst2~q $end
$var wire 1 D inst2|synthesized_var_for_JKFF_inst52~0_combout $end
$var wire 1 E inst2|synthesized_var_for_JKFF_inst52~feeder_combout $end
$var wire 1 F inst2|synthesized_var_for_SYNTHESIZED_WIRE_14~feeder_combout $end
$var wire 1 G inst2|synthesized_var_for_SYNTHESIZED_WIRE_14~q $end
$var wire 1 H inst2|synthesized_var_for_JKFF_inst2~0_combout $end
$var wire 1 I inst2|synthesized_var_for_JKFF_inst2~q $end
$var wire 1 J inst2|SYNTHESIZED_WIRE_16~0_combout $end
$var wire 1 K inst2|synthesized_var_for_JKFF_inst52~q $end
$upscope $end
$upscope $end
$enddefinitions $end
#0
$dumpvars
0!
0"
0#
0$
0%
0&
0'
0(
x)
0*
1+
x,
1-
1.
1/
10
01
02
03
04
05
06
07
08
19
1:
1;
0<
1=
0>
0?
0@
1A
1B
0C
1D
1E
1F
0G
1H
0I
0J
0K
$end
#5000
1!
18
0)
1@
09
11
1"
0:
#10000
0!
08
1)
#15000
1!
18
0)
0@
19
01
0"
1:
1>
0=
12
1#
#20000
0!
08
1)
#25000
1!
18
0)
1@
09
11
1"
0:
#30000
0!
08
1)
#35000
1!
18
0)
0@
19
01
0"
1:
0>
1=
02
0#
1C
0A
13
1$
0B
#40000
0!
08
1)
#45000
1!
18
0)
1@
09
11
1"
0:
#50000
0!
08
1)
#55000
1!
18
0)
0@
19
01
0"
1:
1>
0=
12
1#
#60000
0!
08
1)
#65000
1!
18
0)
1@
09
11
1"
0:
#70000
0!
08
1)
#75000
1!
18
0)
0@
19
01
0"
1:
0>
1=
02
0#
0C
1A
03
0$
1B
1<
0;
14
1%
#80000
0!
08
1)
#85000
1!
18
0)
1@
09
11
1"
0:
#90000
0!
08
1)
#95000
1!
18
0)
0@
19
01
0"
1:
1>
1?
0=
12
1#
1K
0<
0>
0D
0?
1;
1=
15
04
02
1&
0%
0#
0E
#100000
0!
08
1)
#105000
1!
18
0)
1@
09
11
1"
0:
#110000
0!
08
1)
#115000
1!
18
0)
0@
19
01
0"
1:
1>
0=
12
1#
#120000
0!
08
1)
#125000
1!
18
0)
1@
09
11
1"
0:
#130000
0!
08
1)
#135000
1!
18
0)
0@
19
01
0"
1:
0>
1=
02
0#
1C
0A
13
1$
0B
#140000
0!
08
1)
#145000
1!
18
0)
1@
09
11
1"
0:
#150000
0!
08
1)
#155000
1!
18
0)
0@
19
01
0"
1:
1>
0=
12
1#
#160000
0!
08
1)
#165000
1!
18
0)
1@
09
11
1"
0:
#170000
0!
08
1)
#175000
1!
18
0)
0@
19
01
0"
1:
0>
1=
02
0#
0C
1A
03
0$
1B
1<
0;
14
1%
#180000
0!
08
1)
#185000
1!
18
0)
1@
09
11
1"
0:
#190000
0!
08
1)
#195000
1!
18
0)
0@
19
01
0"
1:
1>
1?
0=
12
1#
0K
0<
0>
1D
0?
1;
1=
05
04
02
0&
0%
0#
1E
1G
00
16
1'
0F
#200000
0!
08
1)
#205000
1!
18
0)
1@
09
11
1"
0:
#210000
0!
08
1)
#215000
1!
18
0)
0@
19
01
0"
1:
1>
0=
12
1#
#220000
0!
08
1)
#225000
1!
18
0)
1@
09
11
1"
0:
#230000
0!
08
1)
#235000
1!
18
0)
0@
19
01
0"
1:
0>
1=
02
0#
1C
0A
13
1$
0B
#240000
0!
08
1)
#245000
1!
18
0)
1@
09
11
1"
0:
#250000
0!
08
1)
#255000
1!
18
0)
0@
19
01
0"
1:
1>
0=
12
1#
#260000
0!
08
1)
#265000
1!
18
0)
1@
09
11
1"
0:
#270000
0!
08
1)
#275000
1!
18
0)
0@
19
01
0"
1:
0>
1=
02
0#
0C
1A
03
0$
1B
1<
0;
14
1%
#280000
0!
08
1)
#285000
1!
18
0)
1@
09
11
1"
0:
#290000
0!
08
1)
#295000
1!
18
0)
0@
19
01
0"
1:
1>
1?
0=
12
1#
1K
0<
0>
0D
0?
1;
1=
15
04
02
1&
0%
0#
0E
#300000
0!
08
1)
#305000
1!
18
0)
1@
09
11
1"
0:
#310000
0!
08
1)
#315000
1!
18
0)
0@
19
01
0"
1:
1>
0=
12
1#
#320000
0!
08
1)
#325000
1!
18
0)
1@
09
11
1"
0:
#330000
0!
08
1)
#335000
1!
18
0)
0@
19
01
0"
1:
0>
1=
02
0#
1C
0A
13
1$
0B
#340000
0!
08
1)
#345000
1!
18
0)
1@
09
11
1"
0:
#350000
0!
08
1)
#355000
1!
18
0)
0@
19
01
0"
1:
1>
0=
12
1#
#360000
0!
08
1)
#365000
1!
18
0)
1@
09
11
1"
0:
#370000
0!
08
1)
#375000
1!
18
0)
0@
19
01
0"
1:
0>
1=
02
0#
0C
1A
03
0$
1B
1<
0;
14
1%
#380000
0!
08
1)
#385000
1!
18
0)
1@
09
11
1"
0:
#390000
0!
08
1)
#395000
1!
18
0)
0@
19
01
0"
1:
1>
1?
0=
12
1#
0K
0<
0>
1D
0?
1;
1=
05
04
02
0&
0%
0#
1E
0G
10
06
0'
1F
1I
0H
17
1(
#400000
0!
08
1)
#405000
1!
18
0)
1@
09
11
1"
0:
#410000
0!
08
1)
#415000
1!
18
0)
0@
19
01
0"
1:
1>
0=
12
1#
#420000
0!
08
1)
#425000
1!
18
0)
1@
09
11
1"
0:
#430000
0!
08
1)
#435000
1!
18
0)
0@
19
01
0"
1:
0>
1=
02
0#
1C
0A
13
1$
0B
#440000
0!
08
1)
#445000
1!
18
0)
1@
09
11
1"
0:
#450000
0!
08
1)
#455000
1!
18
0)
0@
19
01
0"
1:
1>
0=
12
1#
#460000
0!
08
1)
#465000
1!
18
0)
1@
09
11
1"
0:
#470000
0!
08
1)
#475000
1!
18
0)
0@
19
01
0"
1:
0>
1=
02
0#
0C
1A
03
0$
1B
1<
0;
14
1%
#480000
0!
08
1)
#485000
1!
18
0)
1@
09
11
1"
0:
#490000
0!
08
1)
#495000
1!
18
0)
0@
19
01
0"
1:
1>
1?
0=
12
1#
1K
0<
0>
0D
0?
1;
1=
15
04
02
1&
0%
0#
0E
#500000
0!
08
1)
#505000
1!
18
0)
1@
09
11
1"
0:
#510000
0!
08
1)
#515000
1!
18
0)
0@
19
01
0"
1:
1>
0=
12
1#
#520000
0!
08
1)
#525000
1!
18
0)
1@
09
11
1"
0:
#530000
0!
08
1)
#535000
1!
18
0)
0@
19
01
0"
1:
0>
1=
02
0#
1C
0A
13
1$
0B
#540000
0!
08
1)
#545000
1!
18
0)
1@
09
11
1"
0:
#550000
0!
08
1)
#555000
1!
18
0)
0@
19
01
0"
1:
1>
0=
12
1#
#560000
0!
08
1)
#565000
1!
18
0)
1@
09
11
1"
0:
#570000
0!
08
1)
#575000
1!
18
0)
0@
19
01
0"
1:
0>
1=
02
0#
0C
1A
03
0$
1B
1<
0;
14
1%
#580000
0!
08
1)
#585000
1!
18
0)
1@
09
11
1"
0:
#590000
0!
08
1)
#595000
1!
18
0)
0@
19
01
0"
1:
1>
1?
0=
12
1#
0K
0<
0>
1D
0?
1;
1=
05
04
02
0&
0%
0#
1E
1G
1J
00
16
1'
0F
0G
0I
0J
10
1H
06
07
0'
0(
1F
#600000
0!
08
1)
#605000
1!
18
0)
1@
09
11
1"
0:
#610000
0!
08
1)
#615000
1!
18
0)
0@
19
01
0"
1:
1>
0=
12
1#
#620000
0!
08
1)
#625000
1!
18
0)
1@
09
11
1"
0:
#630000
0!
08
1)
#635000
1!
18
0)
0@
19
01
0"
1:
0>
1=
02
0#
1C
0A
13
1$
0B
#640000
0!
08
1)
#645000
1!
18
0)
1@
09
11
1"
0:
#650000
0!
08
1)
#655000
1!
18
0)
0@
19
01
0"
1:
1>
0=
12
1#
#660000
0!
08
1)
#665000
1!
18
0)
1@
09
11
1"
0:
#670000
0!
08
1)
#675000
1!
18
0)
0@
19
01
0"
1:
0>
1=
02
0#
0C
1A
03
0$
1B
1<
0;
14
1%
#680000
0!
08
1)
#685000
1!
18
0)
1@
09
11
1"
0:
#690000
0!
08
1)
#695000
1!
18
0)
0@
19
01
0"
1:
1>
1?
0=
12
1#
1K
0<
0>
0D
0?
1;
1=
15
04
02
1&
0%
0#
0E
#700000
0!
08
1)
#705000
1!
18
0)
1@
09
11
1"
0:
#710000
0!
08
1)
#715000
1!
18
0)
0@
19
01
0"
1:
1>
0=
12
1#
#720000
0!
08
1)
#725000
1!
18
0)
1@
09
11
1"
0:
#730000
0!
08
1)
#735000
1!
18
0)
0@
19
01
0"
1:
0>
1=
02
0#
1C
0A
13
1$
0B
#740000
0!
08
1)
#745000
1!
18
0)
1@
09
11
1"
0:
#750000
0!
08
1)
#755000
1!
18
0)
0@
19
01
0"
1:
1>
0=
12
1#
#760000
0!
08
1)
#765000
1!
18
0)
1@
09
11
1"
0:
#770000
0!
08
1)
#775000
1!
18
0)
0@
19
01
0"
1:
0>
1=
02
0#
0C
1A
03
0$
1B
1<
0;
14
1%
#780000
0!
08
1)
#785000
1!
18
0)
1@
09
11
1"
0:
#790000
0!
08
1)
#795000
1!
18
0)
0@
19
01
0"
1:
1>
1?
0=
12
1#
0K
0<
0>
1D
0?
1;
1=
05
04
02
0&
0%
0#
1E
1G
00
16
1'
0F
#800000
0!
08
1)
#805000
1!
18
0)
1@
09
11
1"
0:
#810000
0!
08
1)
#815000
1!
18
0)
0@
19
01
0"
1:
1>
0=
12
1#
#820000
0!
08
1)
#825000
1!
18
0)
1@
09
11
1"
0:
#830000
0!
08
1)
#835000
1!
18
0)
0@
19
01
0"
1:
0>
1=
02
0#
1C
0A
13
1$
0B
#840000
0!
08
1)
#845000
1!
18
0)
1@
09
11
1"
0:
#850000
0!
08
1)
#855000
1!
18
0)
0@
19
01
0"
1:
1>
0=
12
1#
#860000
0!
08
1)
#865000
1!
18
0)
1@
09
11
1"
0:
#870000
0!
08
1)
#875000
1!
18
0)
0@
19
01
0"
1:
0>
1=
02
0#
0C
1A
03
0$
1B
1<
0;
14
1%
#880000
0!
08
1)
#885000
1!
18
0)
1@
09
11
1"
0:
#890000
0!
08
1)
#895000
1!
18
0)
0@
19
01
0"
1:
1>
1?
0=
12
1#
1K
0<
0>
0D
0?
1;
1=
15
04
02
1&
0%
0#
0E
#900000
0!
08
1)
#905000
1!
18
0)
1@
09
11
1"
0:
#910000
0!
08
1)
#915000
1!
18
0)
0@
19
01
0"
1:
1>
0=
12
1#
#920000
0!
08
1)
#925000
1!
18
0)
1@
09
11
1"
0:
#930000
0!
08
1)
#935000
1!
18
0)
0@
19
01
0"
1:
0>
1=
02
0#
1C
0A
13
1$
0B
#940000
0!
08
1)
#945000
1!
18
0)
1@
09
11
1"
0:
#950000
0!
08
1)
#955000
1!
18
0)
0@
19
01
0"
1:
1>
0=
12
1#
#960000
0!
08
1)
#965000
1!
18
0)
1@
09
11
1"
0:
#970000
0!
08
1)
#975000
1!
18
0)
0@
19
01
0"
1:
0>
1=
02
0#
0C
1A
03
0$
1B
1<
0;
14
1%
#980000
0!
08
1)
#985000
1!
18
0)
1@
09
11
1"
0:
#990000
0!
08
1)
#995000
1!
18
0)
0@
19
01
0"
1:
1>
1?
0=
12
1#
0K
0<
0>
1D
0?
1;
1=
05
04
02
0&
0%
0#
1E
0G
10
06
0'
1F
1I
0H
17
1(
