TercerCorte/ModOcho/simulation/qsim/ModOcho.msim.vcd
$comment
	File created using the following command:
		vcd file ModOcho.msim.vcd -direction
$end
$date
	Mon Mar 07 14:47:21 2022
$end
$version
	ModelSim Version 10.1d
$end
$timescale
	1ps
$end
$scope module ModOcho_vlg_vec_tst $end
$var reg 1 ! CLK $end
$var reg 1 " CLR $end
$var wire 1 # Q0 $end
$var wire 1 $ Q1 $end
$var wire 1 % Q2 $end
$var wire 1 & sampler $end
$scope module i1 $end
$var wire 1 ' gnd $end
$var wire 1 ( vcc $end
$var wire 1 ) unknown $end
$var tri1 1 * devclrn $end
$var tri1 1 + devpor $end
$var tri1 1 , devoe $end
$var wire 1 - Q0~output_o $end
$var wire 1 . Q1~output_o $end
$var wire 1 / Q2~output_o $end
$var wire 1 0 CLK~input_o $end
$var wire 1 1 inst52~0_combout $end
$var wire 1 2 inst52~feeder_combout $end
$var wire 1 3 CLR~input_o $end
$var wire 1 4 CLR~inputclkctrl_outclk $end
$var wire 1 5 inst52~q $end
$var wire 1 6 inst1~0_combout $end
$var wire 1 7 inst1~q $end
$var wire 1 8 inst2~0_combout $end
$var wire 1 9 inst2~q $end
$upscope $end
$upscope $end
$enddefinitions $end
#0
$dumpvars
0!
1"
0#
0$
0%
x&
0'
1(
x)
1*
1+
1,
0-
0.
0/
00
11
12
13
14
05
16
07
18
09
$end
#5000
1!
10
0&
15
01
1-
1#
02
#10000
0!
00
1&
#15000
1!
10
0&
05
11
0-
0#
12
17
06
1.
1$
#20000
0!
00
1&
#25000
1!
10
0&
15
01
1-
1#
02
#30000
0!
00
1&
#35000
1!
10
0&
05
11
0-
0#
12
07
16
0.
0$
19
08
1/
1%
#40000
0!
00
1&
#45000
1!
10
0&
15
01
1-
1#
02
#50000
0!
00
1&
#55000
1!
10
0&
05
11
0-
0#
12
17
06
1.
1$
#60000
0!
00
1&
#65000
1!
10
0&
15
01
1-
1#
02
#70000
0!
00
1&
#75000
1!
10
0&
05
11
0-
0#
12
07
16
0.
0$
09
18
0/
0%
#80000
0!
00
1&
#85000
1!
10
0&
15
01
1-
1#
02
#90000
0!
00
1&
#95000
1!
10
0&
05
11
0-
0#
12
17
06
1.
1$
#100000
0!
00
1&
#105000
1!
10
0&
15
01
1-
1#
02
#110000
0!
00
1&
#115000
1!
10
0&
05
11
0-
0#
12
07
16
0.
0$
19
08
1/
1%
#120000
0!
00
1&
#125000
1!
10
0&
15
01
1-
1#
02
#130000
0!
00
1&
#135000
1!
10
0&
05
11
0-
0#
12
17
06
1.
1$
#140000
0!
00
1&
#145000
1!
10
0&
15
01
1-
1#
02
#150000
0!
00
1&
#155000
1!
10
0&
05
11
0-
0#
12
07
16
0.
0$
09
18
0/
0%
#160000
0!
00
1&
#165000
1!
10
0&
15
01
1-
1#
02
#170000
0!
00
1&
#175000
1!
10
0&
05
11
0-
0#
12
17
06
1.
1$
#180000
0!
00
1&
#185000
1!
10
0&
15
01
1-
1#
02
#190000
0!
00
1&
#195000
1!
10
0&
05
11
0-
0#
12
07
16
0.
0$
19
08
1/
1%
#200000
0!
00
1&
#205000
1!
10
0&
15
01
1-
1#
02
#210000
0!
00
1&
#215000
1!
10
0&
05
11
0-
0#
12
17
06
1.
1$
#220000
0!
00
1&
#225000
1!
10
0&
15
01
1-
1#
02
#230000
0!
00
1&
#235000
1!
10
0&
05
11
0-
0#
12
07
16
0.
0$
09
18
0/
0%
#240000
0!
00
1&
#245000
1!
10
0&
15
01
1-
1#
02
#250000
0!
00
1&
#255000
1!
10
0&
05
11
0-
0#
12
17
06
1.
1$
#260000
0!
00
1&
#265000
1!
10
0&
15
01
1-
1#
02
#270000
0!
00
1&
#275000
1!
10
0&
05
11
0-
0#
12
07
16
0.
0$
19
08
1/
1%
#280000
0!
00
1&
#285000
1!
10
0&
15
01
1-
1#
02
#290000
0!
00
1&
#295000
1!
10
0&
05
11
0-
0#
12
17
06
1.
1$
#300000
0!
00
1&
#305000
1!
10
0&
15
01
1-
1#
02
#310000
0!
00
1&
#315000
1!
10
0&
05
11
0-
0#
12
07
16
0.
0$
09
18
0/
0%
#320000
0!
00
1&
#325000
1!
10
0&
15
01
1-
1#
02
#330000
0!
00
1&
#335000
1!
10
0&
05
11
0-
0#
12
17
06
1.
1$
#340000
0!
00
1&
#345000
1!
10
0&
15
01
1-
1#
02
#350000
0!
00
1&
#355000
1!
10
0&
05
11
0-
0#
12
07
16
0.
0$
19
08
1/
1%
#360000
0!
00
1&
#365000
1!
10
0&
15
01
1-
1#
02
#370000
0!
00
1&
#375000
1!
10
0&
05
11
0-
0#
12
17
06
1.
1$
#380000
0!
00
1&
#385000
1!
10
0&
15
01
1-
1#
02
#390000
0!
00
1&
#395000
1!
10
0&
05
11
0-
0#
12
07
16
0.
0$
09
18
0/
0%
#400000
0!
00
1&
#405000
1!
10
0&
15
01
1-
1#
02
#410000
0!
00
1&
#415000
1!
10
0&
05
11
0-
0#
12
17
06
1.
1$
#420000
0!
00
1&
#425000
1!
10
0&
15
01
1-
1#
02
#430000
0!
00
1&
#435000
1!
10
0&
05
11
0-
0#
12
07
16
0.
0$
19
08
1/
1%
#440000
0!
00
1&
#445000
1!
10
0&
15
01
1-
1#
02
#450000
0!
00
1&
#455000
1!
10
0&
05
11
0-
0#
12
17
06
1.
1$
#460000
0!
00
1&
#465000
1!
10
0&
15
01
1-
1#
02
#470000
0!
00
1&
#475000
1!
10
0&
05
11
0-
0#
12
07
16
0.
0$
09
18
0/
0%
#480000
0!
00
1&
#485000
1!
10
0&
15
01
1-
1#
02
#490000
0!
00
1&
#495000
1!
10
0&
05
11
0-
0#
12
17
06
1.
1$
#500000
0!
00
1&
#505000
1!
10
0&
15
01
1-
1#
02
#510000
0!
00
1&
#515000
1!
10
0&
05
11
0-
0#
12
07
16
0.
0$
19
08
1/
1%
#520000
0!
00
1&
#525000
1!
10
0&
15
01
1-
1#
02
#530000
0!
00
1&
#535000
1!
10
0&
05
11
0-
0#
12
17
06
1.
1$
#540000
0!
00
1&
#545000
1!
10
0&
15
01
1-
1#
02
#550000
0!
00
1&
#555000
1!
10
0&
05
11
0-
0#
12
07
16
0.
0$
09
18
0/
0%
#560000
0!
00
1&
#565000
1!
10
0&
15
01
1-
1#
02
#570000
0!
00
1&
#575000
1!
10
0&
05
11
0-
0#
12
17
06
1.
1$
#580000
0!
00
1&
#585000
1!
10
0&
15
01
1-
1#
02
#590000
0!
00
1&
#595000
1!
10
0&
05
11
0-
0#
12
07
16
0.
0$
19
08
1/
1%
#600000
0!
00
1&
#605000
1!
10
0&
15
01
1-
1#
02
#610000
0!
00
1&
#615000
1!
10
0&
05
11
0-
0#
12
17
06
1.
1$
#620000
0!
00
1&
#625000
1!
10
0&
15
01
1-
1#
02
#630000
0!
00
1&
#635000
1!
10
0&
05
11
0-
0#
12
07
16
0.
0$
09
18
0/
0%
#640000
0!
00
1&
#645000
1!
10
0&
15
01
1-
1#
02
#650000
0!
00
1&
#655000
1!
10
0&
05
11
0-
0#
12
17
06
1.
1$
#660000
0!
00
1&
#665000
1!
10
0&
15
01
1-
1#
02
#670000
0!
00
1&
#675000
1!
10
0&
05
11
0-
0#
12
07
16
0.
0$
19
08
1/
1%
#680000
0!
00
1&
#685000
1!
10
0&
15
01
1-
1#
02
#690000
0!
00
1&
#695000
1!
10
0&
05
11
0-
0#
12
17
06
1.
1$
#700000
0!
00
1&
#705000
1!
10
0&
15
01
1-
1#
02
#710000
0!
00
1&
#715000
1!
10
0&
05
11
0-
0#
12
07
16
0.
0$
09
18
0/
0%
#720000
0!
00
1&
#725000
1!
10
0&
15
01
1-
1#
02
#730000
0!
00
1&
#735000
1!
10
0&
05
11
0-
0#
12
17
06
1.
1$
#740000
0!
00
1&
#745000
1!
10
0&
15
01
1-
1#
02
#750000
0!
00
1&
#755000
1!
10
0&
05
11
0-
0#
12
07
16
0.
0$
19
08
1/
1%
#760000
0!
00
1&
#765000
1!
10
0&
15
01
1-
1#
02
#770000
0!
00
1&
#775000
1!
10
0&
05
11
0-
0#
12
17
06
1.
1$
#780000
0!
00
1&
#785000
1!
10
0&
15
01
1-
1#
02
#790000
0!
00
1&
#795000
1!
10
0&
05
11
0-
0#
12
07
16
0.
0$
09
18
0/
0%
#800000
0!
00
1&
#805000
1!
10
0&
15
01
1-
1#
02
#810000
0!
00
1&
#815000
1!
10
0&
05
11
0-
0#
12
17
06
1.
1$
#820000
0!
00
1&
#825000
1!
10
0&
15
01
1-
1#
02
#830000
0!
00
1&
#835000
1!
10
0&
05
11
0-
0#
12
07
16
0.
0$
19
08
1/
1%
#840000
0!
00
1&
#845000
1!
10
0&
15
01
1-
1#
02
#850000
0!
00
1&
#855000
1!
10
0&
05
11
0-
0#
12
17
06
1.
1$
#860000
0!
00
1&
#865000
1!
10
0&
15
01
1-
1#
02
#870000
0!
00
1&
#875000
1!
10
0&
05
11
0-
0#
12
07
16
0.
0$
09
18
0/
0%
#880000
0!
00
1&
#885000
1!
10
0&
15
01
1-
1#
02
#890000
0!
00
1&
#895000
1!
10
0&
05
11
0-
0#
12
17
06
1.
1$
#900000
0!
00
1&
#905000
1!
10
0&
15
01
1-
1#
02
#910000
0!
00
1&
#915000
1!
10
0&
05
11
0-
0#
12
07
16
0.
0$
19
08
1/
1%
#920000
0!
00
1&
#925000
1!
10
0&
15
01
1-
1#
02
#930000
0!
00
1&
#935000
1!
10
0&
05
11
0-
0#
12
17
06
1.
1$
#940000
0!
00
1&
#945000
1!
10
0&
15
01
1-
1#
02
#950000
0!
00
1&
#955000
1!
10
0&
05
11
0-
0#
12
07
16
0.
0$
09
18
0/
0%
#960000
0!
00
1&
#965000
1!
10
0&
15
01
1-
1#
02
#970000
0!
00
1&
#975000
1!
10
0&
05
11
0-
0#
12
17
06
1.
1$
#980000
0!
00
1&
#985000
1!
10
0&
15
01
1-
1#
02
#990000
0!
00
1&
#995000
1!
10
0&
05
11
0-
0#
12
07
16
0.
0$
19
08
1/
1%
