TercerCorte/RelojHoras/simulation/qsim/RelojHoras.msim.vcd
$comment
	File created using the following command:
		vcd file RelojHoras.msim.vcd -direction
$end
$date
	Tue Mar 08 17:30:59 2022
$end
$version
	ModelSim Version 10.1d
$end
$timescale
	1ps
$end
$scope module RelojHoras_vlg_vec_tst $end
$var reg 1 ! CLK $end
$var wire 1 " A0 $end
$var wire 1 # A1 $end
$var wire 1 $ A2 $end
$var wire 1 % A3 $end
$var wire 1 & A4 $end
$var wire 1 ' A5 $end
$var wire 1 ( sampler $end
$scope module i1 $end
$var wire 1 ) gnd $end
$var wire 1 * vcc $end
$var wire 1 + unknown $end
$var tri1 1 , devclrn $end
$var tri1 1 - devpor $end
$var tri1 1 . devoe $end
$var wire 1 / inst1~combout $end
$var wire 1 0 inst|synthesized_var_for_JKFF_inst52~0_combout $end
$var wire 1 1 A0~output_o $end
$var wire 1 2 A1~output_o $end
$var wire 1 3 A2~output_o $end
$var wire 1 4 A3~output_o $end
$var wire 1 5 A4~output_o $end
$var wire 1 6 A5~output_o $end
$var wire 1 7 CLK~input_o $end
$var wire 1 8 inst|synthesized_var_for_JKFF_inst52~feeder_combout $end
$var wire 1 9 inst|synthesized_var_for_JKFF_inst3~0_combout $end
$var wire 1 : inst|synthesized_var_for_JKFF_inst3~q $end
$var wire 1 ; inst|synthesized_var_for_SYNTHESIZED_WIRE_20~0_combout $end
$var wire 1 < inst|synthesized_var_for_SYNTHESIZED_WIRE_20~feeder_combout $end
$var wire 1 = inst|synthesized_var_for_SYNTHESIZED_WIRE_20~q $end
$var wire 1 > inst4|synthesized_var_for_JKFF_inst1~0_combout $end
$var wire 1 ? inst|synthesized_var_for_JKFF_inst2~0_combout $end
$var wire 1 @ inst|synthesized_var_for_JKFF_inst2~q $end
$var wire 1 A inst4|synthesized_var_for_SYNTHESIZED_WIRE_10~0_combout $end
$var wire 1 B inst4|synthesized_var_for_SYNTHESIZED_WIRE_10~q $end
$var wire 1 C inst4|SYNTHESIZED_WIRE_12~0_combout $end
$var wire 1 D inst4|synthesized_var_for_JKFF_inst1~q $end
$var wire 1 E inst|SYNTHESIZED_WIRE_22~combout $end
$var wire 1 F inst|synthesized_var_for_JKFF_inst52~q $end
$upscope $end
$upscope $end
$enddefinitions $end
#0
$dumpvars
0!
0"
0#
0$
0%
0&
0'
x(
0)
1*
x+
1,
1-
1.
0/
10
01
02
03
04
05
06
07
18
19
0:
1;
1<
0=
1>
1?
0@
1A
0B
0C
0D
0E
0F
$end
#5000
1!
17
0(
1F
00
11
1"
08
#10000
0!
07
1(
#15000
1!
17
0(
0F
10
01
0"
18
1=
0;
12
1#
0<
#20000
0!
07
1(
#25000
1!
17
0(
1F
00
11
1"
08
#30000
0!
07
1(
#35000
1!
17
0(
0F
10
01
0"
18
0=
1;
02
0#
1<
1@
0?
13
1$
#40000
0!
07
1(
#45000
1!
17
0(
1F
00
11
1"
08
#50000
0!
07
1(
#55000
1!
17
0(
0F
10
01
0"
18
1=
0;
12
1#
0<
#60000
0!
07
1(
#65000
1!
17
0(
1F
00
11
1"
08
#70000
0!
07
1(
#75000
1!
17
0(
0F
10
01
0"
18
0=
1;
02
0#
1<
0@
1?
03
0$
1:
09
14
1%
#80000
0!
07
1(
#85000
1!
17
0(
1F
00
11
1"
08
#90000
0!
07
1(
#95000
1!
17
0(
0F
10
01
0"
18
1=
1E
0;
1/
12
1#
0<
1B
0:
0=
0A
0E
19
0/
1;
15
04
02
1&
0%
0#
1<
#100000
0!
07
1(
#105000
1!
17
0(
1F
00
11
1"
08
#110000
0!
07
1(
#115000
1!
17
0(
0F
10
01
0"
18
1=
0;
12
1#
0<
#120000
0!
07
1(
#125000
1!
17
0(
1F
00
11
1"
08
#130000
0!
07
1(
#135000
1!
17
0(
0F
10
01
0"
18
0=
1;
02
0#
1<
1@
0?
13
1$
#140000
0!
07
1(
#145000
1!
17
0(
1F
00
11
1"
08
#150000
0!
07
1(
#155000
1!
17
0(
0F
10
01
0"
18
1=
0;
12
1#
0<
#160000
0!
07
1(
#165000
1!
17
0(
1F
00
11
1"
08
#170000
0!
07
1(
#175000
1!
17
0(
0F
10
01
0"
18
0=
1;
02
0#
1<
0@
1?
03
0$
1:
09
14
1%
#180000
0!
07
1(
#185000
1!
17
0(
1F
00
11
1"
08
#190000
0!
07
1(
#195000
1!
17
0(
0F
10
01
0"
18
1=
1E
0;
1/
12
1#
0<
0B
0:
0=
1A
0E
19
0/
1;
05
04
02
0&
0%
0#
1<
1D
0>
16
1'
#200000
0!
07
1(
#205000
1!
17
0(
1F
00
11
1"
08
#210000
0!
07
1(
#215000
1!
17
0(
0F
10
01
0"
18
1=
0;
12
1#
0<
#220000
0!
07
1(
#225000
1!
17
0(
1F
00
11
1"
08
#230000
0!
07
1(
#235000
1!
17
0(
0F
10
01
0"
18
0=
1;
02
0#
1<
1@
1E
1C
0?
13
1$
0@
0D
0E
0C
1?
1>
03
06
0$
0'
#240000
0!
07
1(
#245000
1!
17
0(
1F
00
11
1"
08
#250000
0!
07
1(
#255000
1!
17
0(
0F
10
01
0"
18
1=
0;
12
1#
0<
#260000
0!
07
1(
#265000
1!
17
0(
1F
00
11
1"
08
#270000
0!
07
1(
#275000
1!
17
0(
0F
10
01
0"
18
0=
1;
02
0#
1<
1@
0?
13
1$
#280000
0!
07
1(
#285000
1!
17
0(
1F
00
11
1"
08
#290000
0!
07
1(
#295000
1!
17
0(
0F
10
01
0"
18
1=
0;
12
1#
0<
#300000
0!
07
1(
#305000
1!
17
0(
1F
00
11
1"
08
#310000
0!
07
1(
#315000
1!
17
0(
0F
10
01
0"
18
0=
1;
02
0#
1<
0@
1?
03
0$
1:
09
14
1%
#320000
0!
07
1(
#325000
1!
17
0(
1F
00
11
1"
08
#330000
0!
07
1(
#335000
1!
17
0(
0F
10
01
0"
18
1=
1E
0;
1/
12
1#
0<
1B
0:
0=
0A
0E
19
0/
1;
15
04
02
1&
0%
0#
1<
#340000
0!
07
1(
#345000
1!
17
0(
1F
00
11
1"
08
#350000
0!
07
1(
#355000
1!
17
0(
0F
10
01
0"
18
1=
0;
12
1#
0<
#360000
0!
07
1(
#365000
1!
17
0(
1F
00
11
1"
08
#370000
0!
07
1(
#375000
1!
17
0(
0F
10
01
0"
18
0=
1;
02
0#
1<
1@
0?
13
1$
#380000
0!
07
1(
#385000
1!
17
0(
1F
00
11
1"
08
#390000
0!
07
1(
#395000
1!
17
0(
0F
10
01
0"
18
1=
0;
12
1#
0<
#400000
0!
07
1(
#405000
1!
17
0(
1F
00
11
1"
08
#410000
0!
07
1(
#415000
1!
17
0(
0F
10
01
0"
18
0=
1;
02
0#
1<
0@
1?
03
0$
1:
09
14
1%
#420000
0!
07
1(
#425000
1!
17
0(
1F
00
11
1"
08
#430000
0!
07
1(
#435000
1!
17
0(
0F
10
01
0"
18
1=
1E
0;
1/
12
1#
0<
0B
0:
0=
1A
0E
19
0/
1;
05
04
02
0&
0%
0#
1<
1D
0>
16
1'
#440000
0!
07
1(
#445000
1!
17
0(
1F
00
11
1"
08
#450000
0!
07
1(
#455000
1!
17
0(
0F
10
01
0"
18
1=
0;
12
1#
0<
#460000
0!
07
1(
#465000
1!
17
0(
1F
00
11
1"
08
#470000
0!
07
1(
#475000
1!
17
0(
0F
10
01
0"
18
0=
1;
02
0#
1<
1@
1E
1C
0?
13
1$
0@
0D
0E
0C
1?
1>
03
06
0$
0'
#480000
0!
07
1(
#485000
1!
17
0(
1F
00
11
1"
08
#490000
0!
07
1(
#495000
1!
17
0(
0F
10
01
0"
18
1=
0;
12
1#
0<
#500000
0!
07
1(
#505000
1!
17
0(
1F
00
11
1"
08
#510000
0!
07
1(
#515000
1!
17
0(
0F
10
01
0"
18
0=
1;
02
0#
1<
1@
0?
13
1$
#520000
0!
07
1(
#525000
1!
17
0(
1F
00
11
1"
08
#530000
0!
07
1(
#535000
1!
17
0(
0F
10
01
0"
18
1=
0;
12
1#
0<
#540000
0!
07
1(
#545000
1!
17
0(
1F
00
11
1"
08
#550000
0!
07
1(
#555000
1!
17
0(
0F
10
01
0"
18
0=
1;
02
0#
1<
0@
1?
03
0$
1:
09
14
1%
#560000
0!
07
1(
#565000
1!
17
0(
1F
00
11
1"
08
#570000
0!
07
1(
#575000
1!
17
0(
0F
10
01
0"
18
1=
1E
0;
1/
12
1#
0<
1B
0:
0=
0A
0E
19
0/
1;
15
04
02
1&
0%
0#
1<
#580000
0!
07
1(
#585000
1!
17
0(
1F
00
11
1"
08
#590000
0!
07
1(
#595000
1!
17
0(
0F
10
01
0"
18
1=
0;
12
1#
0<
#600000
0!
07
1(
#605000
1!
17
0(
1F
00
11
1"
08
#610000
0!
07
1(
#615000
1!
17
0(
0F
10
01
0"
18
0=
1;
02
0#
1<
1@
0?
13
1$
#620000
0!
07
1(
#625000
1!
17
0(
1F
00
11
1"
08
#630000
0!
07
1(
#635000
1!
17
0(
0F
10
01
0"
18
1=
0;
12
1#
0<
#640000
0!
07
1(
#645000
1!
17
0(
1F
00
11
1"
08
#650000
0!
07
1(
#655000
1!
17
0(
0F
10
01
0"
18
0=
1;
02
0#
1<
0@
1?
03
0$
1:
09
14
1%
#660000
0!
07
1(
#665000
1!
17
0(
1F
00
11
1"
08
#670000
0!
07
1(
#675000
1!
17
0(
0F
10
01
0"
18
1=
1E
0;
1/
12
1#
0<
0B
0:
0=
1A
0E
19
0/
1;
05
04
02
0&
0%
0#
1<
1D
0>
16
1'
#680000
0!
07
1(
#685000
1!
17
0(
1F
00
11
1"
08
#690000
0!
07
1(
#695000
1!
17
0(
0F
10
01
0"
18
1=
0;
12
1#
0<
#700000
0!
07
1(
#705000
1!
17
0(
1F
00
11
1"
08
#710000
0!
07
1(
#715000
1!
17
0(
0F
10
01
0"
18
0=
1;
02
0#
1<
1@
1E
1C
0?
13
1$
0@
0D
0E
0C
1?
1>
03
06
0$
0'
#720000
0!
07
1(
#725000
1!
17
0(
1F
00
11
1"
08
#730000
0!
07
1(
#735000
1!
17
0(
0F
10
01
0"
18
1=
0;
12
1#
0<
#740000
0!
07
1(
#745000
1!
17
0(
1F
00
11
1"
08
#750000
0!
07
1(
#755000
1!
17
0(
0F
10
01
0"
18
0=
1;
02
0#
1<
1@
0?
13
1$
#760000
0!
07
1(
#765000
1!
17
0(
1F
00
11
1"
08
#770000
0!
07
1(
#775000
1!
17
0(
0F
10
01
0"
18
1=
0;
12
1#
0<
#780000
0!
07
1(
#785000
1!
17
0(
1F
00
11
1"
08
#790000
0!
07
1(
#795000
1!
17
0(
0F
10
01
0"
18
0=
1;
02
0#
1<
0@
1?
03
0$
1:
09
14
1%
#800000
0!
07
1(
#805000
1!
17
0(
1F
00
11
1"
08
#810000
0!
07
1(
#815000
1!
17
0(
0F
10
01
0"
18
1=
1E
0;
1/
12
1#
0<
1B
0:
0=
0A
0E
19
0/
1;
15
04
02
1&
0%
0#
1<
#820000
0!
07
1(
#825000
1!
17
0(
1F
00
11
1"
08
#830000
0!
07
1(
#835000
1!
17
0(
0F
10
01
0"
18
1=
0;
12
1#
0<
#840000
0!
07
1(
#845000
1!
17
0(
1F
00
11
1"
08
#850000
0!
07
1(
#855000
1!
17
0(
0F
10
01
0"
18
0=
1;
02
0#
1<
1@
0?
13
1$
#860000
0!
07
1(
#865000
1!
17
0(
1F
00
11
1"
08
#870000
0!
07
1(
#875000
1!
17
0(
0F
10
01
0"
18
1=
0;
12
1#
0<
#880000
0!
07
1(
#885000
1!
17
0(
1F
00
11
1"
08
#890000
0!
07
1(
#895000
1!
17
0(
0F
10
01
0"
18
0=
1;
02
0#
1<
0@
1?
03
0$
1:
09
14
1%
#900000
0!
07
1(
#905000
1!
17
0(
1F
00
11
1"
08
#910000
0!
07
1(
#915000
1!
17
0(
0F
10
01
0"
18
1=
1E
0;
1/
12
1#
0<
0B
0:
0=
1A
0E
19
0/
1;
05
04
02
0&
0%
0#
1<
1D
0>
16
1'
#920000
0!
07
1(
#925000
1!
17
0(
1F
00
11
1"
08
#930000
0!
07
1(
#935000
1!
17
0(
0F
10
01
0"
18
1=
0;
12
1#
0<
#940000
0!
07
1(
#945000
1!
17
0(
1F
00
11
1"
08
#950000
0!
07
1(
#955000
1!
17
0(
0F
10
01
0"
18
0=
1;
02
0#
1<
1@
1E
1C
0?
13
1$
0@
0D
0E
0C
1?
1>
03
06
0$
0'
#960000
0!
07
1(
#965000
1!
17
0(
1F
00
11
1"
08
#970000
0!
07
1(
#975000
1!
17
0(
0F
10
01
0"
18
1=
0;
12
1#
0<
#980000
0!
07
1(
#985000
1!
17
0(
1F
00
11
1"
08
#990000
0!
07
1(
#995000
1!
17
0(
0F
10
01
0"
18
0=
1;
02
0#
1<
1@
0?
13
1$
